#Generated in Revolved
o RevolvedModel
g RevolvedModel
mtllib RevolvedMaterials.mtl
v 0.000000 1.281250 0.000000
v 0.000000 1.281250 0.000000
v 0.000000 1.281250 0.000000
v 0.000000 1.281250 0.000000
v 0.000000 1.281250 0.000000
v 0.000000 1.281250 0.000000
v 0.000000 1.281250 0.000000
v 0.000000 1.281250 0.000000
v 0.000000 1.281250 0.000000
v 0.000000 1.281250 0.000000
v 0.000000 1.281250 0.000000
v 0.000000 1.281250 0.000000
v 0.000000 1.281250 0.000000
v 0.000000 1.281250 0.000000
v 0.000000 1.281250 0.000000
v 0.000000 1.281250 0.000000
v 0.000000 1.281250 0.000000
v 0.000000 1.281250 0.000000
v 0.000000 1.281250 0.000000
v 0.000000 1.281250 0.000000
v 0.000000 1.281250 0.000000
v 0.000000 1.281250 0.000000
v 0.000000 1.281250 0.000000
v 0.000000 1.281250 0.000000
v 0.000000 1.281250 0.000000
v 0.000000 1.281250 0.000000
v 0.000000 1.281250 0.000000
v 0.000000 1.281250 0.000000
v 0.000000 1.281250 0.000000
v 0.000000 1.281250 0.000000
v 0.000000 1.281250 0.000000
v 0.000000 1.281250 0.000000
v 0.000000 1.281250 0.000000
v 0.000000 1.281250 0.000000
v 0.000000 1.281250 0.000000
v 0.000000 1.281250 0.000000
v 0.000000 1.281250 0.000000
v 0.000000 1.281250 0.000000
v 0.000000 1.281250 0.000000
v 0.000000 1.281250 0.000000
v 0.000000 1.281250 0.000000
v 0.000000 1.281250 0.000000
v 0.000000 1.281250 0.000000
v 0.000000 1.281250 0.000000
v 0.000000 1.281250 0.000000
v 0.000000 1.281250 0.000000
v 0.000000 1.281250 0.000000
v 0.000000 1.281250 0.000000
v 0.000000 1.281250 0.000000
v 0.000000 1.281250 0.000000
v 0.000000 1.281250 0.000000
v 0.000000 1.281250 0.000000
v 0.000000 1.281250 0.000000
v 0.000000 1.281250 0.000000
v 0.000000 1.281250 0.000000
v 0.000000 1.281250 0.000000
v 0.191458 1.270424 0.000000
v 0.190254 1.270424 -0.021436
v 0.186657 1.270424 -0.042603
v 0.180714 1.270424 -0.063234
v 0.172497 1.270424 -0.083070
v 0.162112 1.270424 -0.101862
v 0.149688 1.270424 -0.119372
v 0.135381 1.270424 -0.135381
v 0.119372 1.270424 -0.149688
v 0.101862 1.270424 -0.162112
v 0.083070 1.270424 -0.172497
v 0.063234 1.270424 -0.180714
v 0.042603 1.270424 -0.186657
v 0.021436 1.270424 -0.190254
v -0.000000 1.270424 -0.191458
v -0.021436 1.270424 -0.190254
v -0.042603 1.270424 -0.186657
v -0.063234 1.270424 -0.180714
v -0.083070 1.270424 -0.172497
v -0.101862 1.270424 -0.162112
v -0.119372 1.270424 -0.149688
v -0.135381 1.270424 -0.135381
v -0.149688 1.270424 -0.119372
v -0.162112 1.270424 -0.101862
v -0.172497 1.270424 -0.083070
v -0.180714 1.270424 -0.063234
v -0.186657 1.270424 -0.042603
v -0.190254 1.270424 -0.021436
v -0.191458 1.270424 0.000000
v -0.190254 1.270424 0.021436
v -0.186657 1.270424 0.042603
v -0.180714 1.270424 0.063234
v -0.172497 1.270424 0.083070
v -0.162112 1.270424 0.101862
v -0.149688 1.270424 0.119372
v -0.135381 1.270424 0.135381
v -0.119372 1.270424 0.149688
v -0.101862 1.270424 0.162112
v -0.083070 1.270424 0.172497
v -0.063234 1.270424 0.180714
v -0.042603 1.270424 0.186657
v -0.021436 1.270424 0.190254
v 0.000000 1.270424 0.191458
v 0.021437 1.270424 0.190254
v 0.042603 1.270424 0.186657
v 0.063234 1.270424 0.180714
v 0.083070 1.270424 0.172497
v 0.101862 1.270424 0.162112
v 0.119372 1.270424 0.149687
v 0.135381 1.270424 0.135381
v 0.149688 1.270424 0.119372
v 0.162112 1.270424 0.101861
v 0.172497 1.270424 0.083070
v 0.180714 1.270424 0.063234
v 0.186657 1.270424 0.042603
v 0.190254 1.270424 0.021436
v 0.364564 1.235510 0.000000
v 0.362271 1.235510 -0.040818
v 0.355423 1.235510 -0.081123
v 0.344106 1.235510 -0.120408
v 0.328461 1.235510 -0.158178
v 0.308685 1.235510 -0.193960
v 0.285027 1.235510 -0.227302
v 0.257785 1.235510 -0.257785
v 0.227302 1.235510 -0.285027
v 0.193960 1.235510 -0.308685
v 0.158178 1.235510 -0.328461
v 0.120408 1.235510 -0.344106
v 0.081123 1.235510 -0.355423
v 0.040818 1.235510 -0.362271
v -0.000000 1.235510 -0.364564
v -0.040818 1.235510 -0.362271
v -0.081123 1.235510 -0.355423
v -0.120408 1.235510 -0.344105
v -0.158178 1.235510 -0.328460
v -0.193960 1.235510 -0.308685
v -0.227302 1.235510 -0.285027
v -0.257785 1.235510 -0.257785
v -0.285027 1.235510 -0.227302
v -0.308685 1.235510 -0.193959
v -0.328460 1.235510 -0.158178
v -0.344105 1.235510 -0.120408
v -0.355423 1.235510 -0.081123
v -0.362271 1.235510 -0.040818
v -0.364563 1.235510 0.000000
v -0.362271 1.235510 0.040818
v -0.355423 1.235510 0.081123
v -0.344105 1.235510 0.120408
v -0.328460 1.235510 0.158178
v -0.308685 1.235510 0.193960
v -0.285027 1.235510 0.227302
v -0.257785 1.235510 0.257785
v -0.227301 1.235510 0.285027
v -0.193959 1.235510 0.308685
v -0.158178 1.235510 0.328460
v -0.120408 1.235510 0.344105
v -0.081123 1.235510 0.355423
v -0.040818 1.235510 0.362271
v 0.000000 1.235510 0.364563
v 0.040818 1.235510 0.362271
v 0.081123 1.235510 0.355423
v 0.120408 1.235510 0.344105
v 0.158178 1.235510 0.328460
v 0.193959 1.235510 0.308684
v 0.227302 1.235510 0.285027
v 0.257785 1.235510 0.257785
v 0.285027 1.235510 0.227301
v 0.308685 1.235510 0.193959
v 0.328460 1.235510 0.158178
v 0.344105 1.235510 0.120407
v 0.355423 1.235510 0.081123
v 0.362271 1.235510 0.040818
v 0.519336 1.178893 0.000000
v 0.516071 1.178893 -0.058147
v 0.506315 1.178893 -0.115563
v 0.490193 1.178893 -0.171526
v 0.467906 1.178893 -0.225332
v 0.439734 1.178893 -0.276303
v 0.406033 1.178893 -0.323801
v 0.367226 1.178893 -0.367226
v 0.323801 1.178893 -0.406033
v 0.276303 1.178893 -0.439734
v 0.225331 1.178893 -0.467906
v 0.171526 1.178893 -0.490193
v 0.115563 1.178893 -0.506315
v 0.058147 1.178893 -0.516070
v -0.000000 1.178893 -0.519336
v -0.058147 1.178893 -0.516070
v -0.115563 1.178893 -0.506315
v -0.171526 1.178893 -0.490192
v -0.225331 1.178893 -0.467905
v -0.276303 1.178893 -0.439734
v -0.323801 1.178893 -0.406033
v -0.367226 1.178893 -0.367226
v -0.406033 1.178893 -0.323801
v -0.439734 1.178893 -0.276303
v -0.467905 1.178893 -0.225331
v -0.490192 1.178893 -0.171526
v -0.506315 1.178893 -0.115563
v -0.516070 1.178893 -0.058147
v -0.519336 1.178893 0.000000
v -0.516070 1.178893 0.058147
v -0.506315 1.178893 0.115563
v -0.490192 1.178893 0.171526
v -0.467905 1.178893 0.225331
v -0.439734 1.178893 0.276303
v -0.406033 1.178893 0.323801
v -0.367226 1.178893 0.367226
v -0.323800 1.178893 0.406033
v -0.276303 1.178893 0.439734
v -0.225331 1.178893 0.467905
v -0.171526 1.178893 0.490192
v -0.115563 1.178893 0.506315
v -0.058147 1.178893 0.516070
v 0.000000 1.178893 0.519336
v 0.058147 1.178893 0.516070
v 0.115563 1.178893 0.506315
v 0.171526 1.178893 0.490192
v 0.225331 1.178893 0.467905
v 0.276303 1.178893 0.439734
v 0.323801 1.178893 0.406033
v 0.367226 1.178893 0.367226
v 0.406033 1.178893 0.323800
v 0.439734 1.178893 0.276303
v 0.467905 1.178893 0.225331
v 0.490192 1.178893 0.171525
v 0.506315 1.178893 0.115563
v 0.516070 1.178893 0.058147
v 0.655792 1.102957 0.000000
v 0.651669 1.102957 -0.073425
v 0.639350 1.102957 -0.145928
v 0.618991 1.102957 -0.216594
v 0.590848 1.102957 -0.284538
v 0.555275 1.102957 -0.348902
v 0.512719 1.102957 -0.408880
v 0.463715 1.102957 -0.463715
v 0.408880 1.102957 -0.512719
v 0.348902 1.102957 -0.555275
v 0.284537 1.102957 -0.590848
v 0.216594 1.102957 -0.618991
v 0.145927 1.102957 -0.639350
v 0.073425 1.102957 -0.651668
v -0.000000 1.102957 -0.655792
v -0.073425 1.102957 -0.651668
v -0.145927 1.102957 -0.639350
v -0.216594 1.102957 -0.618991
v -0.284537 1.102957 -0.590848
v -0.348902 1.102957 -0.555275
v -0.408879 1.102957 -0.512719
v -0.463715 1.102957 -0.463715
v -0.512719 1.102957 -0.408879
v -0.555275 1.102957 -0.348902
v -0.590848 1.102957 -0.284537
v -0.618991 1.102957 -0.216594
v -0.639350 1.102957 -0.145927
v -0.651668 1.102957 -0.073425
v -0.655792 1.102957 0.000000
v -0.651668 1.102957 0.073425
v -0.639350 1.102957 0.145927
v -0.618991 1.102957 0.216594
v -0.590848 1.102957 0.284537
v -0.555275 1.102957 0.348902
v -0.512718 1.102957 0.408879
v -0.463715 1.102957 0.463715
v -0.408879 1.102957 0.512718
v -0.348902 1.102957 0.555275
v -0.284537 1.102957 0.590848
v -0.216594 1.102957 0.618991
v -0.145927 1.102957 0.639349
v -0.073425 1.102957 0.651668
v 0.000000 1.102957 0.655791
v 0.073425 1.102957 0.651668
v 0.145927 1.102957 0.639349
v 0.216594 1.102957 0.618990
v 0.284537 1.102957 0.590847
v 0.348902 1.102957 0.555274
v 0.408879 1.102957 0.512718
v 0.463715 1.102957 0.463714
v 0.512718 1.102957 0.408879
v 0.555274 1.102957 0.348902
v 0.590847 1.102957 0.284537
v 0.618990 1.102957 0.216594
v 0.639349 1.102957 0.145927
v 0.651668 1.102957 0.073425
v 0.773950 1.010088 0.000000
v 0.769083 1.010088 -0.086655
v 0.754545 1.010088 -0.172220
v 0.730518 1.010088 -0.255619
v 0.697304 1.010088 -0.335804
v 0.655322 1.010088 -0.411766
v 0.605098 1.010088 -0.482550
v 0.547265 1.010088 -0.547265
v 0.482550 1.010088 -0.605098
v 0.411766 1.010088 -0.655322
v 0.335804 1.010088 -0.697304
v 0.255619 1.010088 -0.730518
v 0.172220 1.010088 -0.754545
v 0.086655 1.010088 -0.769083
v -0.000000 1.010088 -0.773950
v -0.086655 1.010088 -0.769083
v -0.172220 1.010088 -0.754545
v -0.255619 1.010088 -0.730518
v -0.335804 1.010088 -0.697304
v -0.411766 1.010088 -0.655322
v -0.482550 1.010088 -0.605098
v -0.547265 1.010088 -0.547265
v -0.605098 1.010088 -0.482549
v -0.655322 1.010088 -0.411766
v -0.697304 1.010088 -0.335804
v -0.730518 1.010088 -0.255619
v -0.754545 1.010088 -0.172220
v -0.769083 1.010088 -0.086655
v -0.773949 1.010088 0.000000
v -0.769083 1.010088 0.086655
v -0.754545 1.010088 0.172220
v -0.730518 1.010088 0.255619
v -0.697304 1.010088 0.335804
v -0.655322 1.010088 0.411766
v -0.605098 1.010088 0.482550
v -0.547265 1.010088 0.547265
v -0.482549 1.010088 0.605098
v -0.411766 1.010088 0.655322
v -0.335804 1.010088 0.697304
v -0.255619 1.010088 0.730518
v -0.172220 1.010088 0.754545
v -0.086655 1.010088 0.769083
v 0.000000 1.010088 0.773949
v 0.086655 1.010088 0.769083
v 0.172220 1.010088 0.754545
v 0.255619 1.010088 0.730518
v 0.335804 1.010088 0.697304
v 0.411766 1.010088 0.655322
v 0.482550 1.010088 0.605098
v 0.547265 1.010088 0.547265
v 0.605098 1.010088 0.482549
v 0.655322 1.010088 0.411766
v 0.697304 1.010088 0.335804
v 0.730518 1.010088 0.255619
v 0.754545 1.010088 0.172220
v 0.769083 1.010088 0.086655
v 0.873826 0.902669 0.000000
v 0.868332 0.902669 -0.097837
v 0.851918 0.902669 -0.194445
v 0.824790 0.902669 -0.288606
v 0.787290 0.902669 -0.379139
v 0.739890 0.902669 -0.464904
v 0.683185 0.902669 -0.544822
v 0.617888 0.902669 -0.617888
v 0.544822 0.902669 -0.683185
v 0.464903 0.902669 -0.739890
v 0.379139 0.902669 -0.787290
v 0.288606 0.902669 -0.824790
v 0.194445 0.902669 -0.851917
v 0.097837 0.902669 -0.868332
v -0.000000 0.902669 -0.873826
v -0.097838 0.902669 -0.868331
v -0.194445 0.902669 -0.851917
v -0.288606 0.902669 -0.824790
v -0.379139 0.902669 -0.787290
v -0.464903 0.902669 -0.739890
v -0.544822 0.902669 -0.683185
v -0.617888 0.902669 -0.617888
v -0.683185 0.902669 -0.544821
v -0.739890 0.902669 -0.464903
v -0.787290 0.902669 -0.379139
v -0.824790 0.902669 -0.288606
v -0.851917 0.902669 -0.194444
v -0.868331 0.902669 -0.097837
v -0.873826 0.902669 0.000000
v -0.868331 0.902669 0.097838
v -0.851917 0.902669 0.194445
v -0.824790 0.902669 0.288606
v -0.787290 0.902669 0.379139
v -0.739889 0.902669 0.464903
v -0.683184 0.902669 0.544822
v -0.617888 0.902669 0.617888
v -0.544821 0.902669 0.683185
v -0.464903 0.902669 0.739889
v -0.379139 0.902669 0.787290
v -0.288606 0.902669 0.824790
v -0.194444 0.902669 0.851917
v -0.097837 0.902669 0.868331
v 0.000000 0.902669 0.873826
v 0.097838 0.902669 0.868331
v 0.194445 0.902669 0.851917
v 0.288606 0.902669 0.824789
v 0.379139 0.902669 0.787290
v 0.464903 0.902669 0.739889
v 0.544822 0.902669 0.683184
v 0.617888 0.902669 0.617888
v 0.683185 0.902669 0.544821
v 0.739889 0.902669 0.464903
v 0.787290 0.902669 0.379139
v 0.824790 0.902669 0.288606
v 0.851917 0.902669 0.194444
v 0.868331 0.902669 0.097837
v 0.955439 0.783086 0.000000
v 0.949432 0.783086 -0.106975
v 0.931484 0.783086 -0.212605
v 0.901823 0.783086 -0.315562
v 0.860821 0.783086 -0.414549
v 0.808993 0.783086 -0.508324
v 0.746992 0.783086 -0.595707
v 0.675597 0.783086 -0.675598
v 0.595706 0.783086 -0.746992
v 0.508324 0.783086 -0.808993
v 0.414549 0.783086 -0.860821
v 0.315561 0.783086 -0.901823
v 0.212605 0.783086 -0.931484
v 0.106975 0.783086 -0.949431
v -0.000000 0.783086 -0.955439
v -0.106975 0.783086 -0.949431
v -0.212605 0.783086 -0.931484
v -0.315562 0.783086 -0.901823
v -0.414550 0.783086 -0.860821
v -0.508324 0.783086 -0.808993
v -0.595707 0.783086 -0.746992
v -0.675597 0.783086 -0.675597
v -0.746992 0.783086 -0.595706
v -0.808993 0.783086 -0.508324
v -0.860821 0.783086 -0.414549
v -0.901823 0.783086 -0.315561
v -0.931484 0.783086 -0.212605
v -0.949431 0.783086 -0.106975
v -0.955439 0.783086 0.000000
v -0.949431 0.783086 0.106975
v -0.931484 0.783086 0.212605
v -0.901823 0.783086 0.315562
v -0.860821 0.783086 0.414550
v -0.808993 0.783086 0.508324
v -0.746992 0.783086 0.595707
v -0.675597 0.783086 0.675597
v -0.595706 0.783086 0.746992
v -0.508324 0.783086 0.808993
v -0.414549 0.783086 0.860821
v -0.315561 0.783086 0.901823
v -0.212605 0.783086 0.931484
v -0.106975 0.783086 0.949431
v 0.000000 0.783086 0.955439
v 0.106975 0.783086 0.949431
v 0.212605 0.783086 0.931484
v 0.315562 0.783086 0.901823
v 0.414550 0.783086 0.860820
v 0.508324 0.783086 0.808993
v 0.595706 0.783086 0.746992
v 0.675597 0.783086 0.675597
v 0.746992 0.783086 0.595706
v 0.808993 0.783086 0.508324
v 0.860820 0.783086 0.414549
v 0.901823 0.783086 0.315561
v 0.931484 0.783086 0.212605
v 0.949431 0.783086 0.106975
v 1.018806 0.653722 0.000000
v 1.012400 0.653722 -0.114070
v 0.993263 0.653722 -0.226706
v 0.961634 0.653722 -0.336490
v 0.917913 0.653722 -0.442043
v 0.862648 0.653722 -0.542038
v 0.796535 0.653722 -0.635215
v 0.720405 0.653722 -0.720405
v 0.635215 0.653722 -0.796535
v 0.542038 0.653722 -0.862648
v 0.442043 0.653722 -0.917913
v 0.336490 0.653722 -0.961634
v 0.226706 0.653722 -0.993262
v 0.114070 0.653722 -1.012400
v -0.000000 0.653722 -1.018806
v -0.114070 0.653722 -1.012400
v -0.226706 0.653722 -0.993262
v -0.336490 0.653722 -0.961634
v -0.442043 0.653722 -0.917912
v -0.542038 0.653722 -0.862648
v -0.635215 0.653722 -0.796535
v -0.720405 0.653722 -0.720405
v -0.796535 0.653722 -0.635215
v -0.862648 0.653722 -0.542037
v -0.917912 0.653722 -0.442043
v -0.961634 0.653722 -0.336490
v -0.993262 0.653722 -0.226706
v -1.012400 0.653722 -0.114070
v -1.018806 0.653722 0.000000
v -1.012400 0.653722 0.114070
v -0.993262 0.653722 0.226706
v -0.961634 0.653722 0.336490
v -0.917912 0.653722 0.442043
v -0.862647 0.653722 0.542037
v -0.796534 0.653722 0.635215
v -0.720404 0.653722 0.720405
v -0.635215 0.653722 0.796534
v -0.542037 0.653722 0.862647
v -0.442043 0.653722 0.917912
v -0.336490 0.653722 0.961634
v -0.226705 0.653722 0.993262
v -0.114070 0.653722 1.012400
v 0.000000 0.653722 1.018806
v 0.114070 0.653722 1.012399
v 0.226706 0.653722 0.993262
v 0.336490 0.653722 0.961633
v 0.442043 0.653722 0.917912
v 0.542037 0.653722 0.862647
v 0.635215 0.653722 0.796534
v 0.720404 0.653722 0.720404
v 0.796534 0.653722 0.635215
v 0.862647 0.653722 0.542037
v 0.917912 0.653722 0.442043
v 0.961633 0.653722 0.336490
v 0.993262 0.653722 0.226705
v 1.012399 0.653722 0.114070
v 1.063946 0.516963 0.000000
v 1.057256 0.516963 -0.119124
v 1.037270 0.516963 -0.236750
v 1.004240 0.516963 -0.351399
v 0.958582 0.516963 -0.461629
v 0.900868 0.516963 -0.566053
v 0.831826 0.516963 -0.663359
v 0.752323 0.516963 -0.752323
v 0.663359 0.516963 -0.831826
v 0.566053 0.516963 -0.900868
v 0.461629 0.516963 -0.958582
v 0.351399 0.516963 -1.004240
v 0.236750 0.516963 -1.037270
v 0.119124 0.516963 -1.057255
v -0.000000 0.516963 -1.063945
v -0.119124 0.516963 -1.057255
v -0.236750 0.516963 -1.037270
v -0.351399 0.516963 -1.004240
v -0.461629 0.516963 -0.958581
v -0.566053 0.516963 -0.900868
v -0.663359 0.516963 -0.831826
v -0.752323 0.516963 -0.752323
v -0.831826 0.516963 -0.663359
v -0.900868 0.516963 -0.566053
v -0.958581 0.516963 -0.461628
v -1.004240 0.516963 -0.351399
v -1.037270 0.516963 -0.236750
v -1.057255 0.516963 -0.119124
v -1.063945 0.516963 0.000000
v -1.057255 0.516963 0.119124
v -1.037269 0.516963 0.236750
v -1.004240 0.516963 0.351399
v -0.958581 0.516963 0.461628
v -0.900868 0.516963 0.566053
v -0.831825 0.516963 0.663359
v -0.752322 0.516963 0.752323
v -0.663358 0.516963 0.831826
v -0.566052 0.516963 0.900868
v -0.461628 0.516963 0.958581
v -0.351398 0.516963 1.004240
v -0.236750 0.516963 1.037269
v -0.119124 0.516963 1.057255
v 0.000000 0.516963 1.063944
v 0.119124 0.516963 1.057254
v 0.236750 0.516963 1.037269
v 0.351399 0.516963 1.004239
v 0.461628 0.516963 0.958580
v 0.566053 0.516963 0.900867
v 0.663359 0.516963 0.831825
v 0.752322 0.516963 0.752322
v 0.831825 0.516963 0.663358
v 0.900867 0.516963 0.566052
v 0.958581 0.516963 0.461628
v 1.004239 0.516963 0.351398
v 1.037269 0.516963 0.236749
v 1.057254 0.516963 0.119123
v 1.090874 0.375191 0.000000
v 1.084015 0.375191 -0.122139
v 1.063523 0.375191 -0.242742
v 1.029658 0.375191 -0.360293
v 0.982843 0.375191 -0.473312
v 0.923669 0.375191 -0.580380
v 0.852879 0.375191 -0.680149
v 0.771364 0.375191 -0.771364
v 0.680149 0.375191 -0.852879
v 0.580380 0.375191 -0.923669
v 0.473312 0.375191 -0.982843
v 0.360293 0.375191 -1.029657
v 0.242742 0.375191 -1.063523
v 0.122139 0.375191 -1.084014
v -0.000000 0.375191 -1.090874
v -0.122139 0.375191 -1.084014
v -0.242742 0.375191 -1.063523
v -0.360293 0.375191 -1.029657
v -0.473312 0.375191 -0.982843
v -0.580380 0.375191 -0.923669
v -0.680149 0.375191 -0.852879
v -0.771364 0.375191 -0.771364
v -0.852879 0.375191 -0.680148
v -0.923669 0.375191 -0.580379
v -0.982843 0.375191 -0.473312
v -1.029657 0.375191 -0.360292
v -1.063523 0.375191 -0.242742
v -1.084014 0.375191 -0.122139
v -1.090873 0.375191 0.000000
v -1.084014 0.375191 0.122139
v -1.063523 0.375191 0.242742
v -1.029657 0.375191 0.360293
v -0.982843 0.375191 0.473312
v -0.923669 0.375191 0.580380
v -0.852879 0.375191 0.680149
v -0.771364 0.375191 0.771364
v -0.680148 0.375191 0.852879
v -0.580379 0.375191 0.923669
v -0.473312 0.375191 0.982843
v -0.360292 0.375191 1.029657
v -0.242742 0.375191 1.063523
v -0.122139 0.375191 1.084014
v 0.000000 0.375191 1.090873
v 0.122139 0.375191 1.084014
v 0.242742 0.375191 1.063523
v 0.360293 0.375191 1.029657
v 0.473312 0.375191 0.982843
v 0.580380 0.375191 0.923668
v 0.680149 0.375191 0.852879
v 0.771364 0.375191 0.771363
v 0.852879 0.375191 0.680148
v 0.923669 0.375191 0.580379
v 0.982843 0.375191 0.473312
v 1.029657 0.375191 0.360292
v 1.063523 0.375191 0.242742
v 1.084014 0.375191 0.122139
v 1.099609 0.230794 0.000000
v 1.092695 0.230794 -0.123117
v 1.072040 0.230794 -0.244686
v 1.037903 0.230794 -0.363178
v 0.990714 0.230794 -0.477103
v 0.931066 0.230794 -0.585027
v 0.859709 0.230794 -0.685595
v 0.777541 0.230794 -0.777541
v 0.685595 0.230794 -0.859709
v 0.585027 0.230794 -0.931066
v 0.477102 0.230794 -0.990714
v 0.363178 0.230794 -1.037903
v 0.244686 0.230794 -1.072040
v 0.123117 0.230794 -1.092695
v -0.000000 0.230794 -1.099609
v -0.123117 0.230794 -1.092695
v -0.244686 0.230794 -1.072040
v -0.363178 0.230794 -1.037903
v -0.477103 0.230794 -0.990713
v -0.585027 0.230794 -0.931065
v -0.685595 0.230794 -0.859709
v -0.777541 0.230794 -0.777541
v -0.859709 0.230794 -0.685595
v -0.931066 0.230794 -0.585027
v -0.990713 0.230794 -0.477102
v -1.037902 0.230794 -0.363178
v -1.072039 0.230794 -0.244686
v -1.092695 0.230794 -0.123117
v -1.099609 0.230794 0.000000
v -1.092695 0.230794 0.123117
v -1.072039 0.230794 0.244686
v -1.037902 0.230794 0.363178
v -0.990713 0.230794 0.477103
v -0.931065 0.230794 0.585027
v -0.859709 0.230794 0.685595
v -0.777541 0.230794 0.777541
v -0.685595 0.230794 0.859709
v -0.585027 0.230794 0.931065
v -0.477102 0.230794 0.990713
v -0.363177 0.230794 1.037902
v -0.244686 0.230794 1.072039
v -0.123117 0.230794 1.092695
v 0.000000 0.230794 1.099609
v 0.123117 0.230794 1.092694
v 0.244686 0.230794 1.072039
v 0.363178 0.230794 1.037902
v 0.477103 0.230794 0.990713
v 0.585027 0.230794 0.931065
v 0.685595 0.230794 0.859708
v 0.777541 0.230794 0.777540
v 0.859709 0.230794 0.685594
v 0.931065 0.230794 0.585027
v 0.990713 0.230794 0.477102
v 1.037902 0.230794 0.363177
v 1.072039 0.230794 0.244685
v 1.092694 0.230794 0.123117
v 1.090170 0.086155 0.000000
v 1.083315 0.086155 -0.122060
v 1.062837 0.086155 -0.242586
v 1.028993 0.086155 -0.360060
v 0.982209 0.086155 -0.473007
v 0.923073 0.086155 -0.580005
v 0.852329 0.086155 -0.679710
v 0.770866 0.086155 -0.770866
v 0.679709 0.086155 -0.852329
v 0.580005 0.086155 -0.923073
v 0.473007 0.086155 -0.982209
v 0.360060 0.086155 -1.028993
v 0.242585 0.086155 -1.062837
v 0.122060 0.086155 -1.083315
v -0.000000 0.086155 -1.090169
v -0.122060 0.086155 -1.083315
v -0.242586 0.086155 -1.062836
v -0.360060 0.086155 -1.028993
v -0.473007 0.086155 -0.982208
v -0.580005 0.086155 -0.923073
v -0.679709 0.086155 -0.852328
v -0.770866 0.086155 -0.770866
v -0.852329 0.086155 -0.679709
v -0.923073 0.086155 -0.580005
v -0.982208 0.086155 -0.473006
v -1.028992 0.086155 -0.360060
v -1.062836 0.086155 -0.242585
v -1.083314 0.086155 -0.122060
v -1.090169 0.086155 0.000000
v -1.083314 0.086155 0.122060
v -1.062836 0.086155 0.242586
v -1.028992 0.086155 0.360060
v -0.982208 0.086155 0.473007
v -0.923072 0.086155 0.580005
v -0.852328 0.086155 0.679710
v -0.770866 0.086155 0.770866
v -0.679709 0.086155 0.852329
v -0.580005 0.086155 0.923073
v -0.473006 0.086155 0.982208
v -0.360060 0.086155 1.028992
v -0.242585 0.086155 1.062836
v -0.122060 0.086155 1.083314
v 0.000000 0.086155 1.090169
v 0.122061 0.086155 1.083314
v 0.242586 0.086155 1.062836
v 0.360060 0.086155 1.028992
v 0.473007 0.086155 0.982208
v 0.580005 0.086155 0.923072
v 0.679709 0.086155 0.852328
v 0.770866 0.086155 0.770866
v 0.852329 0.086155 0.679709
v 0.923073 0.086155 0.580005
v 0.982208 0.086155 0.473006
v 1.028992 0.086155 0.360060
v 1.062836 0.086155 0.242585
v 1.083314 0.086155 0.122060
v 1.062572 -0.056343 0.000000
v 1.055891 -0.056343 -0.118970
v 1.035931 -0.056343 -0.236445
v 1.002944 -0.056343 -0.350945
v 0.957344 -0.056343 -0.461033
v 0.899705 -0.056343 -0.565322
v 0.830752 -0.056343 -0.662503
v 0.751352 -0.056343 -0.751352
v 0.662503 -0.056343 -0.830752
v 0.565322 -0.056343 -0.899705
v 0.461033 -0.056343 -0.957344
v 0.350945 -0.056343 -1.002944
v 0.236444 -0.056343 -1.035931
v 0.118970 -0.056343 -1.055890
v -0.000000 -0.056343 -1.062572
v -0.118970 -0.056343 -1.055890
v -0.236445 -0.056343 -1.035931
v -0.350945 -0.056343 -1.002944
v -0.461033 -0.056343 -0.957344
v -0.565322 -0.056343 -0.899705
v -0.662503 -0.056343 -0.830752
v -0.751352 -0.056343 -0.751351
v -0.830752 -0.056343 -0.662502
v -0.899705 -0.056343 -0.565322
v -0.957344 -0.056343 -0.461032
v -1.002943 -0.056343 -0.350945
v -1.035930 -0.056343 -0.236444
v -1.055890 -0.056343 -0.118970
v -1.062571 -0.056343 0.000000
v -1.055890 -0.056343 0.118970
v -1.035930 -0.056343 0.236445
v -1.002943 -0.056343 0.350945
v -0.957344 -0.056343 0.461033
v -0.899705 -0.056343 0.565322
v -0.830751 -0.056343 0.662503
v -0.751351 -0.056343 0.751351
v -0.662502 -0.056343 0.830752
v -0.565322 -0.056343 0.899705
v -0.461032 -0.056343 0.957344
v -0.350945 -0.056343 1.002943
v -0.236444 -0.056343 1.035930
v -0.118970 -0.056343 1.055890
v 0.000000 -0.056343 1.062571
v 0.118971 -0.056343 1.055890
v 0.236445 -0.056343 1.035930
v 0.350945 -0.056343 1.002943
v 0.461033 -0.056343 0.957343
v 0.565322 -0.056343 0.899704
v 0.662502 -0.056343 0.830751
v 0.751351 -0.056343 0.751351
v 0.830752 -0.056343 0.662502
v 0.899705 -0.056343 0.565321
v 0.957343 -0.056343 0.461032
v 1.002943 -0.056343 0.350945
v 1.035930 -0.056343 0.236444
v 1.055889 -0.056343 0.118970
v 1.016834 -0.194313 0.000000
v 1.010440 -0.194313 -0.113849
v 0.991340 -0.194313 -0.226267
v 0.959773 -0.194313 -0.335839
v 0.916136 -0.194313 -0.441188
v 0.860978 -0.194313 -0.540988
v 0.794993 -0.194313 -0.633986
v 0.719010 -0.194313 -0.719010
v 0.633986 -0.194313 -0.794993
v 0.540988 -0.194313 -0.860978
v 0.441188 -0.194313 -0.916136
v 0.335839 -0.194313 -0.959773
v 0.226267 -0.194313 -0.991340
v 0.113849 -0.194313 -1.010440
v -0.000000 -0.194313 -1.016834
v -0.113849 -0.194313 -1.010440
v -0.226267 -0.194313 -0.991340
v -0.335839 -0.194313 -0.959772
v -0.441188 -0.194313 -0.916135
v -0.540988 -0.194313 -0.860978
v -0.633986 -0.194313 -0.794993
v -0.719010 -0.194313 -0.719010
v -0.794993 -0.194313 -0.633985
v -0.860978 -0.194313 -0.540988
v -0.916136 -0.194313 -0.441187
v -0.959772 -0.194313 -0.335839
v -0.991340 -0.194313 -0.226267
v -1.010440 -0.194313 -0.113849
v -1.016834 -0.194313 0.000000
v -1.010440 -0.194313 0.113849
v -0.991339 -0.194313 0.226267
v -0.959772 -0.194313 0.335839
v -0.916135 -0.194313 0.441188
v -0.860977 -0.194313 0.540988
v -0.794992 -0.194313 0.633985
v -0.719010 -0.194313 0.719010
v -0.633985 -0.194313 0.794993
v -0.540988 -0.194313 0.860978
v -0.441187 -0.194313 0.916135
v -0.335838 -0.194313 0.959772
v -0.226266 -0.194313 0.991339
v -0.113849 -0.194313 1.010440
v 0.000000 -0.194313 1.016833
v 0.113850 -0.194313 1.010440
v 0.226267 -0.194313 0.991339
v 0.335839 -0.194313 0.959772
v 0.441188 -0.194313 0.916135
v 0.540988 -0.194313 0.860977
v 0.633985 -0.194313 0.794992
v 0.719010 -0.194313 0.719009
v 0.794992 -0.194313 0.633985
v 0.860977 -0.194313 0.540988
v 0.916135 -0.194313 0.441187
v 0.959772 -0.194313 0.335838
v 0.991339 -0.194313 0.226266
v 1.010440 -0.194313 0.113849
v 0.952974 -0.325372 0.000000
v 0.946982 -0.325372 -0.106699
v 0.929081 -0.325372 -0.212057
v 0.899496 -0.325372 -0.314747
v 0.858600 -0.325372 -0.413480
v 0.806906 -0.325372 -0.507013
v 0.745065 -0.325372 -0.594169
v 0.673854 -0.325372 -0.673854
v 0.594169 -0.325372 -0.745065
v 0.507013 -0.325372 -0.806906
v 0.413480 -0.325372 -0.858600
v 0.314747 -0.325372 -0.899496
v 0.212056 -0.325372 -0.929081
v 0.106699 -0.325372 -0.946982
v -0.000000 -0.325372 -0.952974
v -0.106699 -0.325372 -0.946981
v -0.212057 -0.325372 -0.929080
v -0.314747 -0.325372 -0.899496
v -0.413480 -0.325372 -0.858599
v -0.507013 -0.325372 -0.806906
v -0.594169 -0.325372 -0.745065
v -0.673854 -0.325372 -0.673854
v -0.745065 -0.325372 -0.594169
v -0.806906 -0.325372 -0.507012
v -0.858599 -0.325372 -0.413480
v -0.899496 -0.325372 -0.314747
v -0.929080 -0.325372 -0.212056
v -0.946981 -0.325372 -0.106699
v -0.952973 -0.325372 0.000000
v -0.946981 -0.325372 0.106699
v -0.929080 -0.325372 0.212057
v -0.899495 -0.325372 0.314747
v -0.858599 -0.325372 0.413480
v -0.806905 -0.325372 0.507012
v -0.745064 -0.325372 0.594169
v -0.673854 -0.325372 0.673854
v -0.594169 -0.325372 0.745064
v -0.507012 -0.325372 0.806906
v -0.413479 -0.325372 0.858599
v -0.314747 -0.325372 0.899495
v -0.212056 -0.325372 0.929080
v -0.106699 -0.325372 0.946981
v 0.000000 -0.325372 0.952973
v 0.106699 -0.325372 0.946981
v 0.212057 -0.325372 0.929080
v 0.314747 -0.325372 0.899495
v 0.413480 -0.325372 0.858599
v 0.507012 -0.325372 0.806905
v 0.594169 -0.325372 0.745064
v 0.673854 -0.325372 0.673853
v 0.745064 -0.325372 0.594169
v 0.806905 -0.325372 0.507012
v 0.858599 -0.325372 0.413479
v 0.899495 -0.325372 0.314747
v 0.929080 -0.325372 0.212056
v 0.946981 -0.325372 0.106699
v 0.871009 -0.447134 0.000000
v 0.865532 -0.447134 -0.097522
v 0.849171 -0.447134 -0.193818
v 0.822131 -0.447134 -0.287676
v 0.784752 -0.447134 -0.377916
v 0.737504 -0.447134 -0.463405
v 0.680982 -0.447134 -0.543065
v 0.615896 -0.447134 -0.615896
v 0.543065 -0.447134 -0.680982
v 0.463404 -0.447134 -0.737504
v 0.377916 -0.447134 -0.784752
v 0.287676 -0.447134 -0.822130
v 0.193818 -0.447134 -0.849171
v 0.097522 -0.447134 -0.865532
v -0.000000 -0.447134 -0.871008
v -0.097522 -0.447134 -0.865532
v -0.193818 -0.447134 -0.849170
v -0.287676 -0.447134 -0.822130
v -0.377916 -0.447134 -0.784751
v -0.463404 -0.447134 -0.737504
v -0.543065 -0.447134 -0.680982
v -0.615896 -0.447134 -0.615896
v -0.680982 -0.447134 -0.543065
v -0.737504 -0.447134 -0.463404
v -0.784751 -0.447134 -0.377916
v -0.822130 -0.447134 -0.287676
v -0.849170 -0.447134 -0.193817
v -0.865532 -0.447134 -0.097522
v -0.871008 -0.447134 0.000000
v -0.865531 -0.447134 0.097522
v -0.849170 -0.447134 0.193818
v -0.822130 -0.447134 0.287676
v -0.784751 -0.447134 0.377916
v -0.737504 -0.447134 0.463404
v -0.680981 -0.447134 0.543065
v -0.615896 -0.447134 0.615896
v -0.543064 -0.447134 0.680982
v -0.463404 -0.447134 0.737504
v -0.377916 -0.447134 0.784751
v -0.287675 -0.447134 0.822130
v -0.193817 -0.447134 0.849170
v -0.097522 -0.447134 0.865531
v 0.000000 -0.447134 0.871008
v 0.097522 -0.447134 0.865531
v 0.193818 -0.447134 0.849170
v 0.287676 -0.447134 0.822130
v 0.377916 -0.447134 0.784751
v 0.463404 -0.447134 0.737503
v 0.543065 -0.447134 0.680981
v 0.615896 -0.447134 0.615895
v 0.680981 -0.447134 0.543064
v 0.737503 -0.447134 0.463404
v 0.784751 -0.447134 0.377916
v 0.822130 -0.447134 0.287675
v 0.849170 -0.447134 0.193817
v 0.865531 -0.447134 0.097522
v 0.770956 -0.557216 0.000000
v 0.766109 -0.557216 -0.086320
v 0.751627 -0.557216 -0.171554
v 0.727693 -0.557216 -0.254631
v 0.694607 -0.557216 -0.334505
v 0.652787 -0.557216 -0.410173
v 0.602758 -0.557216 -0.480683
v 0.545148 -0.557216 -0.545148
v 0.480683 -0.557216 -0.602758
v 0.410173 -0.557216 -0.652787
v 0.334505 -0.557216 -0.694607
v 0.254631 -0.557216 -0.727692
v 0.171554 -0.557216 -0.751626
v 0.086320 -0.557216 -0.766108
v -0.000000 -0.557216 -0.770956
v -0.086320 -0.557216 -0.766108
v -0.171554 -0.557216 -0.751626
v -0.254631 -0.557216 -0.727692
v -0.334505 -0.557216 -0.694607
v -0.410173 -0.557216 -0.652787
v -0.480683 -0.557216 -0.602757
v -0.545148 -0.557216 -0.545148
v -0.602757 -0.557216 -0.480683
v -0.652787 -0.557216 -0.410173
v -0.694607 -0.557216 -0.334505
v -0.727692 -0.557216 -0.254630
v -0.751626 -0.557216 -0.171554
v -0.766108 -0.557216 -0.086320
v -0.770956 -0.557216 0.000000
v -0.766108 -0.557216 0.086320
v -0.751626 -0.557216 0.171554
v -0.727692 -0.557216 0.254631
v -0.694607 -0.557216 0.334505
v -0.652786 -0.557216 0.410173
v -0.602757 -0.557216 0.480683
v -0.545148 -0.557216 0.545148
v -0.480683 -0.557216 0.602757
v -0.410173 -0.557216 0.652787
v -0.334505 -0.557216 0.694607
v -0.254630 -0.557216 0.727692
v -0.171553 -0.557216 0.751626
v -0.086319 -0.557216 0.766108
v 0.000000 -0.557216 0.770955
v 0.086320 -0.557216 0.766107
v 0.171554 -0.557216 0.751626
v 0.254631 -0.557216 0.727692
v 0.334505 -0.557216 0.694606
v 0.410173 -0.557216 0.652786
v 0.480683 -0.557216 0.602757
v 0.545148 -0.557216 0.545147
v 0.602757 -0.557216 0.480682
v 0.652786 -0.557216 0.410173
v 0.694607 -0.557216 0.334505
v 0.727692 -0.557216 0.254630
v 0.751626 -0.557216 0.171553
v 0.766107 -0.557216 0.086319
v 0.652834 -0.653233 0.000000
v 0.648729 -0.653233 -0.073094
v 0.636466 -0.653233 -0.145269
v 0.616199 -0.653233 -0.215617
v 0.588183 -0.653233 -0.283254
v 0.552770 -0.653233 -0.347329
v 0.510406 -0.653233 -0.407035
v 0.461623 -0.653233 -0.461623
v 0.407035 -0.653233 -0.510406
v 0.347328 -0.653233 -0.552770
v 0.283254 -0.653233 -0.588183
v 0.215617 -0.653233 -0.616199
v 0.145269 -0.653233 -0.636466
v 0.073094 -0.653233 -0.648729
v -0.000000 -0.653233 -0.652834
v -0.073094 -0.653233 -0.648729
v -0.145269 -0.653233 -0.636466
v -0.215617 -0.653233 -0.616199
v -0.283254 -0.653233 -0.588183
v -0.347329 -0.653233 -0.552770
v -0.407035 -0.653233 -0.510406
v -0.461623 -0.653233 -0.461623
v -0.510406 -0.653233 -0.407035
v -0.552770 -0.653233 -0.347328
v -0.588183 -0.653233 -0.283254
v -0.616199 -0.653233 -0.215617
v -0.636466 -0.653233 -0.145269
v -0.648729 -0.653233 -0.073094
v -0.652833 -0.653233 0.000000
v -0.648728 -0.653233 0.073094
v -0.636465 -0.653233 0.145269
v -0.616198 -0.653233 0.215617
v -0.588182 -0.653233 0.283254
v -0.552770 -0.653233 0.347328
v -0.510405 -0.653233 0.407035
v -0.461623 -0.653233 0.461623
v -0.407035 -0.653233 0.510406
v -0.347328 -0.653233 0.552770
v -0.283253 -0.653233 0.588182
v -0.215617 -0.653233 0.616198
v -0.145269 -0.653233 0.636465
v -0.073094 -0.653233 0.648728
v 0.000000 -0.653233 0.652833
v 0.073094 -0.653233 0.648728
v 0.145269 -0.653233 0.636465
v 0.215617 -0.653233 0.616198
v 0.283254 -0.653233 0.588182
v 0.347328 -0.653233 0.552769
v 0.407035 -0.653233 0.510405
v 0.461623 -0.653233 0.461622
v 0.510405 -0.653233 0.407034
v 0.552769 -0.653233 0.347328
v 0.588182 -0.653233 0.283253
v 0.616198 -0.653233 0.215617
v 0.636465 -0.653233 0.145269
v 0.648728 -0.653233 0.073094
v 0.516659 -0.732800 0.000000
v 0.513411 -0.732800 -0.057848
v 0.503706 -0.732800 -0.114968
v 0.487666 -0.732800 -0.170642
v 0.465494 -0.732800 -0.224170
v 0.437468 -0.732800 -0.274879
v 0.403941 -0.732800 -0.322132
v 0.365333 -0.732800 -0.365333
v 0.322132 -0.732800 -0.403941
v 0.274879 -0.732800 -0.437468
v 0.224170 -0.732800 -0.465494
v 0.170642 -0.732800 -0.487666
v 0.114967 -0.732800 -0.503706
v 0.057847 -0.732800 -0.513411
v -0.000000 -0.732800 -0.516659
v -0.057848 -0.732800 -0.513411
v -0.114968 -0.732800 -0.503706
v -0.170642 -0.732800 -0.487666
v -0.224170 -0.732800 -0.465494
v -0.274879 -0.732800 -0.437468
v -0.322132 -0.732800 -0.403940
v -0.365333 -0.732800 -0.365333
v -0.403940 -0.732800 -0.322132
v -0.437468 -0.732800 -0.274879
v -0.465494 -0.732800 -0.224170
v -0.487666 -0.732800 -0.170642
v -0.503705 -0.732800 -0.114967
v -0.513410 -0.732800 -0.057847
v -0.516659 -0.732800 0.000000
v -0.513410 -0.732800 0.057848
v -0.503705 -0.732800 0.114968
v -0.487666 -0.732800 0.170642
v -0.465494 -0.732800 0.224170
v -0.437468 -0.732800 0.274879
v -0.403940 -0.732800 0.322132
v -0.365333 -0.732800 0.365333
v -0.322131 -0.732800 0.403940
v -0.274879 -0.732800 0.437468
v -0.224170 -0.732800 0.465494
v -0.170641 -0.732800 0.487666
v -0.114967 -0.732800 0.503705
v -0.057847 -0.732800 0.513410
v 0.000000 -0.732800 0.516659
v 0.057848 -0.732800 0.513410
v 0.114968 -0.732800 0.503705
v 0.170642 -0.732800 0.487666
v 0.224170 -0.732800 0.465493
v 0.274879 -0.732800 0.437467
v 0.322132 -0.732800 0.403940
v 0.365333 -0.732800 0.365333
v 0.403940 -0.732800 0.322131
v 0.437468 -0.732800 0.274879
v 0.465493 -0.732800 0.224170
v 0.487666 -0.732800 0.170641
v 0.503705 -0.732800 0.114967
v 0.513410 -0.732800 0.057847
v 0.362451 -0.793533 0.000000
v 0.360172 -0.793533 -0.040582
v 0.353363 -0.793533 -0.080653
v 0.342111 -0.793533 -0.119710
v 0.326557 -0.793533 -0.157261
v 0.306896 -0.793533 -0.192835
v 0.283375 -0.793533 -0.225984
v 0.256291 -0.793533 -0.256291
v 0.225984 -0.793533 -0.283375
v 0.192835 -0.793533 -0.306896
v 0.157261 -0.793533 -0.326557
v 0.119710 -0.793533 -0.342111
v 0.080653 -0.793533 -0.353363
v 0.040582 -0.793533 -0.360172
v -0.000000 -0.793533 -0.362451
v -0.040582 -0.793533 -0.360172
v -0.080653 -0.793533 -0.353363
v -0.119710 -0.793533 -0.342111
v -0.157261 -0.793533 -0.326557
v -0.192835 -0.793533 -0.306896
v -0.225984 -0.793533 -0.283375
v -0.256291 -0.793533 -0.256291
v -0.283375 -0.793533 -0.225984
v -0.306896 -0.793533 -0.192835
v -0.326557 -0.793533 -0.157261
v -0.342111 -0.793533 -0.119710
v -0.353363 -0.793533 -0.080653
v -0.360172 -0.793533 -0.040582
v -0.362451 -0.793533 0.000000
v -0.360172 -0.793533 0.040582
v -0.353363 -0.793533 0.080653
v -0.342111 -0.793533 0.119710
v -0.326557 -0.793533 0.157261
v -0.306896 -0.793533 0.192835
v -0.283375 -0.793533 0.225984
v -0.256291 -0.793533 0.256291
v -0.225984 -0.793533 0.283375
v -0.192835 -0.793533 0.306896
v -0.157261 -0.793533 0.326557
v -0.119710 -0.793533 0.342111
v -0.080653 -0.793533 0.353363
v -0.040582 -0.793533 0.360172
v 0.000000 -0.793533 0.362451
v 0.040582 -0.793533 0.360172
v 0.080653 -0.793533 0.353363
v 0.119710 -0.793533 0.342111
v 0.157261 -0.793533 0.326557
v 0.192835 -0.793533 0.306896
v 0.225984 -0.793533 0.283375
v 0.256291 -0.793533 0.256291
v 0.283375 -0.793533 0.225984
v 0.306896 -0.793533 0.192835
v 0.326557 -0.793533 0.157261
v 0.342111 -0.793533 0.119710
v 0.353363 -0.793533 0.080653
v 0.360172 -0.793533 0.040581
v 0.190225 -0.833048 0.000000
v 0.189029 -0.833048 -0.021298
v 0.185456 -0.833048 -0.042329
v 0.179550 -0.833048 -0.062827
v 0.171387 -0.833048 -0.082536
v 0.161068 -0.833048 -0.101206
v 0.148724 -0.833048 -0.118603
v 0.134509 -0.833048 -0.134509
v 0.118603 -0.833048 -0.148724
v 0.101206 -0.833048 -0.161068
v 0.082536 -0.833048 -0.171387
v 0.062827 -0.833048 -0.179550
v 0.042329 -0.833048 -0.185456
v 0.021298 -0.833048 -0.189029
v -0.000000 -0.833048 -0.190225
v -0.021298 -0.833048 -0.189029
v -0.042329 -0.833048 -0.185456
v -0.062827 -0.833048 -0.179550
v -0.082536 -0.833048 -0.171387
v -0.101206 -0.833048 -0.161068
v -0.118603 -0.833048 -0.148724
v -0.134509 -0.833048 -0.134509
v -0.148724 -0.833048 -0.118603
v -0.161068 -0.833048 -0.101206
v -0.171387 -0.833048 -0.082536
v -0.179550 -0.833048 -0.062827
v -0.185456 -0.833048 -0.042329
v -0.189029 -0.833048 -0.021298
v -0.190225 -0.833048 0.000000
v -0.189029 -0.833048 0.021298
v -0.185456 -0.833048 0.042329
v -0.179550 -0.833048 0.062827
v -0.171387 -0.833048 0.082536
v -0.161068 -0.833048 0.101206
v -0.148724 -0.833048 0.118603
v -0.134509 -0.833048 0.134509
v -0.118603 -0.833048 0.148724
v -0.101206 -0.833048 0.161068
v -0.082535 -0.833048 0.171387
v -0.062827 -0.833048 0.179550
v -0.042329 -0.833048 0.185456
v -0.021298 -0.833048 0.189029
v 0.000000 -0.833048 0.190225
v 0.021298 -0.833048 0.189029
v 0.042329 -0.833048 0.185456
v 0.062827 -0.833048 0.179550
v 0.082536 -0.833048 0.171387
v 0.101206 -0.833048 0.161068
v 0.118603 -0.833048 0.148724
v 0.134509 -0.833048 0.134509
v 0.148724 -0.833048 0.118603
v 0.161068 -0.833048 0.101206
v 0.171387 -0.833048 0.082535
v 0.179550 -0.833048 0.062827
v 0.185455 -0.833048 0.042329
v 0.189029 -0.833048 0.021298
v 0.000000 -0.848958 0.000000
v 0.000000 -0.848958 0.000000
v 0.000000 -0.848958 0.000000
v 0.000000 -0.848958 0.000000
v 0.000000 -0.848958 0.000000
v 0.000000 -0.848958 0.000000
v 0.000000 -0.848958 0.000000
v 0.000000 -0.848958 0.000000
v 0.000000 -0.848958 0.000000
v 0.000000 -0.848958 0.000000
v 0.000000 -0.848958 0.000000
v 0.000000 -0.848958 0.000000
v 0.000000 -0.848958 0.000000
v 0.000000 -0.848958 0.000000
v 0.000000 -0.848958 0.000000
v 0.000000 -0.848958 0.000000
v 0.000000 -0.848958 0.000000
v 0.000000 -0.848958 0.000000
v 0.000000 -0.848958 0.000000
v 0.000000 -0.848958 0.000000
v 0.000000 -0.848958 0.000000
v 0.000000 -0.848958 0.000000
v 0.000000 -0.848958 0.000000
v 0.000000 -0.848958 0.000000
v 0.000000 -0.848958 0.000000
v 0.000000 -0.848958 0.000000
v 0.000000 -0.848958 0.000000
v 0.000000 -0.848958 0.000000
v 0.000000 -0.848958 0.000000
v 0.000000 -0.848958 0.000000
v 0.000000 -0.848958 0.000000
v 0.000000 -0.848958 0.000000
v 0.000000 -0.848958 0.000000
v 0.000000 -0.848958 0.000000
v 0.000000 -0.848958 0.000000
v 0.000000 -0.848958 0.000000
v 0.000000 -0.848958 0.000000
v 0.000000 -0.848958 0.000000
v 0.000000 -0.848958 0.000000
v 0.000000 -0.848958 0.000000
v 0.000000 -0.848958 0.000000
v 0.000000 -0.848958 0.000000
v 0.000000 -0.848958 0.000000
v 0.000000 -0.848958 0.000000
v 0.000000 -0.848958 0.000000
v 0.000000 -0.848958 0.000000
v 0.000000 -0.848958 0.000000
v 0.000000 -0.848958 0.000000
v 0.000000 -0.848958 0.000000
v 0.000000 -0.848958 0.000000
v 0.000000 -0.848958 0.000000
v 0.000000 -0.848958 0.000000
v 0.000000 -0.848958 0.000000
v 0.000000 -0.848958 0.000000
v 0.000000 -0.848958 0.000000
v 0.000000 -0.848958 0.000000

s 1
usemtl mat3
f 1 57 2
f 57 58 2
f 2 58 3
f 58 59 3
f 3 59 4
f 59 60 4
f 4 60 5
f 60 61 5
f 5 61 6
f 61 62 6
f 6 62 7
f 62 63 7
f 7 63 8
f 63 64 8
f 8 64 9
f 64 65 9
f 9 65 10
f 65 66 10
f 10 66 11
f 66 67 11
f 11 67 12
f 67 68 12
f 12 68 13
f 68 69 13
f 13 69 14
f 69 70 14
f 14 70 15
f 70 71 15
f 15 71 16
f 71 72 16
f 16 72 17
f 72 73 17
f 17 73 18
f 73 74 18
f 18 74 19
f 74 75 19
f 19 75 20
f 75 76 20
f 20 76 21
f 76 77 21
f 21 77 22
f 77 78 22
f 22 78 23
f 78 79 23
f 23 79 24
f 79 80 24
f 24 80 25
f 80 81 25
f 25 81 26
f 81 82 26
f 26 82 27
f 82 83 27
f 27 83 28
f 83 84 28
f 28 84 29
f 84 85 29
f 29 85 30
f 85 86 30
f 30 86 31
f 86 87 31
f 31 87 32
f 87 88 32
f 32 88 33
f 88 89 33
f 33 89 34
f 89 90 34
f 34 90 35
f 90 91 35
f 35 91 36
f 91 92 36
f 36 92 37
f 92 93 37
f 37 93 38
f 93 94 38
f 38 94 39
f 94 95 39
f 39 95 40
f 95 96 40
f 40 96 41
f 96 97 41
f 41 97 42
f 97 98 42
f 42 98 43
f 98 99 43
f 43 99 44
f 99 100 44
f 44 100 45
f 100 101 45
f 45 101 46
f 101 102 46
f 46 102 47
f 102 103 47
f 47 103 48
f 103 104 48
f 48 104 49
f 104 105 49
f 49 105 50
f 105 106 50
f 50 106 51
f 106 107 51
f 51 107 52
f 107 108 52
f 52 108 53
f 108 109 53
f 53 109 54
f 109 110 54
f 54 110 55
f 110 111 55
f 55 111 56
f 111 112 56
f 56 112 1
f 112 57 1
f 57 113 58
f 113 114 58
f 58 114 59
f 114 115 59
f 59 115 60
f 115 116 60
f 60 116 61
f 116 117 61
f 61 117 62
f 117 118 62
f 62 118 63
f 118 119 63
f 63 119 64
f 119 120 64
f 64 120 65
f 120 121 65
f 65 121 66
f 121 122 66
f 66 122 67
f 122 123 67
f 67 123 68
f 123 124 68
f 68 124 69
f 124 125 69
f 69 125 70
f 125 126 70
f 70 126 71
f 126 127 71
f 71 127 72
f 127 128 72
f 72 128 73
f 128 129 73
f 73 129 74
f 129 130 74
f 74 130 75
f 130 131 75
f 75 131 76
f 131 132 76
f 76 132 77
f 132 133 77
f 77 133 78
f 133 134 78
f 78 134 79
f 134 135 79
f 79 135 80
f 135 136 80
f 80 136 81
f 136 137 81
f 81 137 82
f 137 138 82
f 82 138 83
f 138 139 83
f 83 139 84
f 139 140 84
f 84 140 85
f 140 141 85
f 85 141 86
f 141 142 86
f 86 142 87
f 142 143 87
f 87 143 88
f 143 144 88
f 88 144 89
f 144 145 89
f 89 145 90
f 145 146 90
f 90 146 91
f 146 147 91
f 91 147 92
f 147 148 92
f 92 148 93
f 148 149 93
f 93 149 94
f 149 150 94
f 94 150 95
f 150 151 95
f 95 151 96
f 151 152 96
f 96 152 97
f 152 153 97
f 97 153 98
f 153 154 98
f 98 154 99
f 154 155 99
f 99 155 100
f 155 156 100
f 100 156 101
f 156 157 101
f 101 157 102
f 157 158 102
f 102 158 103
f 158 159 103
f 103 159 104
f 159 160 104
f 104 160 105
f 160 161 105
f 105 161 106
f 161 162 106
f 106 162 107
f 162 163 107
f 107 163 108
f 163 164 108
f 108 164 109
f 164 165 109
f 109 165 110
f 165 166 110
f 110 166 111
f 166 167 111
f 111 167 112
f 167 168 112
f 112 168 57
f 168 113 57
f 113 169 114
f 169 170 114
f 114 170 115
f 170 171 115
f 115 171 116
f 171 172 116
f 116 172 117
f 172 173 117
f 117 173 118
f 173 174 118
f 118 174 119
f 174 175 119
f 119 175 120
f 175 176 120
f 120 176 121
f 176 177 121
f 121 177 122
f 177 178 122
f 122 178 123
f 178 179 123
f 123 179 124
f 179 180 124
f 124 180 125
f 180 181 125
f 125 181 126
f 181 182 126
f 126 182 127
f 182 183 127
f 127 183 128
f 183 184 128
f 128 184 129
f 184 185 129
f 129 185 130
f 185 186 130
f 130 186 131
f 186 187 131
f 131 187 132
f 187 188 132
f 132 188 133
f 188 189 133
f 133 189 134
f 189 190 134
f 134 190 135
f 190 191 135
f 135 191 136
f 191 192 136
f 136 192 137
f 192 193 137
f 137 193 138
f 193 194 138
f 138 194 139
f 194 195 139
f 139 195 140
f 195 196 140
f 140 196 141
f 196 197 141
f 141 197 142
f 197 198 142
f 142 198 143
f 198 199 143
f 143 199 144
f 199 200 144
f 144 200 145
f 200 201 145
f 145 201 146
f 201 202 146
f 146 202 147
f 202 203 147
f 147 203 148
f 203 204 148
f 148 204 149
f 204 205 149
f 149 205 150
f 205 206 150
f 150 206 151
f 206 207 151
f 151 207 152
f 207 208 152
f 152 208 153
f 208 209 153
f 153 209 154
f 209 210 154
f 154 210 155
f 210 211 155
f 155 211 156
f 211 212 156
f 156 212 157
f 212 213 157
f 157 213 158
f 213 214 158
f 158 214 159
f 214 215 159
f 159 215 160
f 215 216 160
f 160 216 161
f 216 217 161
f 161 217 162
f 217 218 162
f 162 218 163
f 218 219 163
f 163 219 164
f 219 220 164
f 164 220 165
f 220 221 165
f 165 221 166
f 221 222 166
f 166 222 167
f 222 223 167
f 167 223 168
f 223 224 168
f 168 224 113
f 224 169 113
f 169 225 170
f 225 226 170
f 170 226 171
f 226 227 171
f 171 227 172
f 227 228 172
f 172 228 173
f 228 229 173
f 173 229 174
f 229 230 174
f 174 230 175
f 230 231 175
f 175 231 176
f 231 232 176
f 176 232 177
f 232 233 177
f 177 233 178
f 233 234 178
f 178 234 179
f 234 235 179
f 179 235 180
f 235 236 180
f 180 236 181
f 236 237 181
f 181 237 182
f 237 238 182
f 182 238 183
f 238 239 183
f 183 239 184
f 239 240 184
f 184 240 185
f 240 241 185
f 185 241 186
f 241 242 186
f 186 242 187
f 242 243 187
f 187 243 188
f 243 244 188
f 188 244 189
f 244 245 189
f 189 245 190
f 245 246 190
f 190 246 191
f 246 247 191
f 191 247 192
f 247 248 192
f 192 248 193
f 248 249 193
f 193 249 194
f 249 250 194
f 194 250 195
f 250 251 195
f 195 251 196
f 251 252 196
f 196 252 197
f 252 253 197
f 197 253 198
f 253 254 198
f 198 254 199
f 254 255 199
f 199 255 200
f 255 256 200
f 200 256 201
f 256 257 201
f 201 257 202
f 257 258 202
f 202 258 203
f 258 259 203
f 203 259 204
f 259 260 204
f 204 260 205
f 260 261 205
f 205 261 206
f 261 262 206
f 206 262 207
f 262 263 207
f 207 263 208
f 263 264 208
f 208 264 209
f 264 265 209
f 209 265 210
f 265 266 210
f 210 266 211
f 266 267 211
f 211 267 212
f 267 268 212
f 212 268 213
f 268 269 213
f 213 269 214
f 269 270 214
f 214 270 215
f 270 271 215
f 215 271 216
f 271 272 216
f 216 272 217
f 272 273 217
f 217 273 218
f 273 274 218
f 218 274 219
f 274 275 219
f 219 275 220
f 275 276 220
f 220 276 221
f 276 277 221
f 221 277 222
f 277 278 222
f 222 278 223
f 278 279 223
f 223 279 224
f 279 280 224
f 224 280 169
f 280 225 169
f 225 281 226
f 281 282 226
f 226 282 227
f 282 283 227
f 227 283 228
f 283 284 228
f 228 284 229
f 284 285 229
f 229 285 230
f 285 286 230
f 230 286 231
f 286 287 231
f 231 287 232
f 287 288 232
f 232 288 233
f 288 289 233
f 233 289 234
f 289 290 234
f 234 290 235
f 290 291 235
f 235 291 236
f 291 292 236
f 236 292 237
f 292 293 237
f 237 293 238
f 293 294 238
f 238 294 239
f 294 295 239
f 239 295 240
f 295 296 240
f 240 296 241
f 296 297 241
f 241 297 242
f 297 298 242
f 242 298 243
f 298 299 243
f 243 299 244
f 299 300 244
f 244 300 245
f 300 301 245
f 245 301 246
f 301 302 246
f 246 302 247
f 302 303 247
f 247 303 248
f 303 304 248
f 248 304 249
f 304 305 249
f 249 305 250
f 305 306 250
f 250 306 251
f 306 307 251
f 251 307 252
f 307 308 252
f 252 308 253
f 308 309 253
f 253 309 254
f 309 310 254
f 254 310 255
f 310 311 255
f 255 311 256
f 311 312 256
f 256 312 257
f 312 313 257
f 257 313 258
f 313 314 258
f 258 314 259
f 314 315 259
f 259 315 260
f 315 316 260
f 260 316 261
f 316 317 261
f 261 317 262
f 317 318 262
f 262 318 263
f 318 319 263
f 263 319 264
f 319 320 264
f 264 320 265
f 320 321 265
f 265 321 266
f 321 322 266
f 266 322 267
f 322 323 267
f 267 323 268
f 323 324 268
f 268 324 269
f 324 325 269
f 269 325 270
f 325 326 270
f 270 326 271
f 326 327 271
f 271 327 272
f 327 328 272
f 272 328 273
f 328 329 273
f 273 329 274
f 329 330 274
f 274 330 275
f 330 331 275
f 275 331 276
f 331 332 276
f 276 332 277
f 332 333 277
f 277 333 278
f 333 334 278
f 278 334 279
f 334 335 279
f 279 335 280
f 335 336 280
f 280 336 225
f 336 281 225
f 281 337 282
f 337 338 282
f 282 338 283
f 338 339 283
f 283 339 284
f 339 340 284
f 284 340 285
f 340 341 285
f 285 341 286
f 341 342 286
f 286 342 287
f 342 343 287
f 287 343 288
f 343 344 288
f 288 344 289
f 344 345 289
f 289 345 290
f 345 346 290
f 290 346 291
f 346 347 291
f 291 347 292
f 347 348 292
f 292 348 293
f 348 349 293
f 293 349 294
f 349 350 294
f 294 350 295
f 350 351 295
f 295 351 296
f 351 352 296
f 296 352 297
f 352 353 297
f 297 353 298
f 353 354 298
f 298 354 299
f 354 355 299
f 299 355 300
f 355 356 300
f 300 356 301
f 356 357 301
f 301 357 302
f 357 358 302
f 302 358 303
f 358 359 303
f 303 359 304
f 359 360 304
f 304 360 305
f 360 361 305
f 305 361 306
f 361 362 306
f 306 362 307
f 362 363 307
f 307 363 308
f 363 364 308
f 308 364 309
f 364 365 309
f 309 365 310
f 365 366 310
f 310 366 311
f 366 367 311
f 311 367 312
f 367 368 312
f 312 368 313
f 368 369 313
f 313 369 314
f 369 370 314
f 314 370 315
f 370 371 315
f 315 371 316
f 371 372 316
f 316 372 317
f 372 373 317
f 317 373 318
f 373 374 318
f 318 374 319
f 374 375 319
f 319 375 320
f 375 376 320
f 320 376 321
f 376 377 321
f 321 377 322
f 377 378 322
f 322 378 323
f 378 379 323
f 323 379 324
f 379 380 324
f 324 380 325
f 380 381 325
f 325 381 326
f 381 382 326
f 326 382 327
f 382 383 327
f 327 383 328
f 383 384 328
f 328 384 329
f 384 385 329
f 329 385 330
f 385 386 330
f 330 386 331
f 386 387 331
f 331 387 332
f 387 388 332
f 332 388 333
f 388 389 333
f 333 389 334
f 389 390 334
f 334 390 335
f 390 391 335
f 335 391 336
f 391 392 336
f 336 392 281
f 392 337 281
f 337 393 338
f 393 394 338
f 338 394 339
f 394 395 339
f 339 395 340
f 395 396 340
f 340 396 341
f 396 397 341
f 341 397 342
f 397 398 342
f 342 398 343
f 398 399 343
f 343 399 344
f 399 400 344
f 344 400 345
f 400 401 345
f 345 401 346
f 401 402 346
f 346 402 347
f 402 403 347
f 347 403 348
f 403 404 348
f 348 404 349
f 404 405 349
f 349 405 350
f 405 406 350
f 350 406 351
f 406 407 351
f 351 407 352
f 407 408 352
f 352 408 353
f 408 409 353
f 353 409 354
f 409 410 354
f 354 410 355
f 410 411 355
f 355 411 356
f 411 412 356
f 356 412 357
f 412 413 357
f 357 413 358
f 413 414 358
f 358 414 359
f 414 415 359
f 359 415 360
f 415 416 360
f 360 416 361
f 416 417 361
f 361 417 362
f 417 418 362
f 362 418 363
f 418 419 363
f 363 419 364
f 419 420 364
f 364 420 365
f 420 421 365
f 365 421 366
f 421 422 366
f 366 422 367
f 422 423 367
f 367 423 368
f 423 424 368
f 368 424 369
f 424 425 369
f 369 425 370
f 425 426 370
f 370 426 371
f 426 427 371
f 371 427 372
f 427 428 372
f 372 428 373
f 428 429 373
f 373 429 374
f 429 430 374
f 374 430 375
f 430 431 375
f 375 431 376
f 431 432 376
f 376 432 377
f 432 433 377
f 377 433 378
f 433 434 378
f 378 434 379
f 434 435 379
f 379 435 380
f 435 436 380
f 380 436 381
f 436 437 381
f 381 437 382
f 437 438 382
f 382 438 383
f 438 439 383
f 383 439 384
f 439 440 384
f 384 440 385
f 440 441 385
f 385 441 386
f 441 442 386
f 386 442 387
f 442 443 387
f 387 443 388
f 443 444 388
f 388 444 389
f 444 445 389
f 389 445 390
f 445 446 390
f 390 446 391
f 446 447 391
f 391 447 392
f 447 448 392
f 392 448 337
f 448 393 337
f 393 449 394
f 449 450 394
f 394 450 395
f 450 451 395
f 395 451 396
f 451 452 396
f 396 452 397
f 452 453 397
f 397 453 398
f 453 454 398
f 398 454 399
f 454 455 399
f 399 455 400
f 455 456 400
f 400 456 401
f 456 457 401
f 401 457 402
f 457 458 402
f 402 458 403
f 458 459 403
f 403 459 404
f 459 460 404
f 404 460 405
f 460 461 405
f 405 461 406
f 461 462 406
f 406 462 407
f 462 463 407
f 407 463 408
f 463 464 408
f 408 464 409
f 464 465 409
f 409 465 410
f 465 466 410
f 410 466 411
f 466 467 411
f 411 467 412
f 467 468 412
f 412 468 413
f 468 469 413
f 413 469 414
f 469 470 414
f 414 470 415
f 470 471 415
f 415 471 416
f 471 472 416
f 416 472 417
f 472 473 417
f 417 473 418
f 473 474 418
f 418 474 419
f 474 475 419
f 419 475 420
f 475 476 420
f 420 476 421
f 476 477 421
f 421 477 422
f 477 478 422
f 422 478 423
f 478 479 423
f 423 479 424
f 479 480 424
f 424 480 425
f 480 481 425
f 425 481 426
f 481 482 426
f 426 482 427
f 482 483 427
f 427 483 428
f 483 484 428
f 428 484 429
f 484 485 429
f 429 485 430
f 485 486 430
f 430 486 431
f 486 487 431
f 431 487 432
f 487 488 432
f 432 488 433
f 488 489 433
f 433 489 434
f 489 490 434
f 434 490 435
f 490 491 435
f 435 491 436
f 491 492 436
f 436 492 437
f 492 493 437
f 437 493 438
f 493 494 438
f 438 494 439
f 494 495 439
f 439 495 440
f 495 496 440
f 440 496 441
f 496 497 441
f 441 497 442
f 497 498 442
f 442 498 443
f 498 499 443
f 443 499 444
f 499 500 444
f 444 500 445
f 500 501 445
f 445 501 446
f 501 502 446
f 446 502 447
f 502 503 447
f 447 503 448
f 503 504 448
f 448 504 393
f 504 449 393
f 449 505 450
f 505 506 450
f 450 506 451
f 506 507 451
f 451 507 452
f 507 508 452
f 452 508 453
f 508 509 453
f 453 509 454
f 509 510 454
f 454 510 455
f 510 511 455
f 455 511 456
f 511 512 456
f 456 512 457
f 512 513 457
f 457 513 458
f 513 514 458
f 458 514 459
f 514 515 459
f 459 515 460
f 515 516 460
f 460 516 461
f 516 517 461
f 461 517 462
f 517 518 462
f 462 518 463
f 518 519 463
f 463 519 464
f 519 520 464
f 464 520 465
f 520 521 465
f 465 521 466
f 521 522 466
f 466 522 467
f 522 523 467
f 467 523 468
f 523 524 468
f 468 524 469
f 524 525 469
f 469 525 470
f 525 526 470
f 470 526 471
f 526 527 471
f 471 527 472
f 527 528 472
f 472 528 473
f 528 529 473
f 473 529 474
f 529 530 474
f 474 530 475
f 530 531 475
f 475 531 476
f 531 532 476
f 476 532 477
f 532 533 477
f 477 533 478
f 533 534 478
f 478 534 479
f 534 535 479
f 479 535 480
f 535 536 480
f 480 536 481
f 536 537 481
f 481 537 482
f 537 538 482
f 482 538 483
f 538 539 483
f 483 539 484
f 539 540 484
f 484 540 485
f 540 541 485
f 485 541 486
f 541 542 486
f 486 542 487
f 542 543 487
f 487 543 488
f 543 544 488
f 488 544 489
f 544 545 489
f 489 545 490
f 545 546 490
f 490 546 491
f 546 547 491
f 491 547 492
f 547 548 492
f 492 548 493
f 548 549 493
f 493 549 494
f 549 550 494
f 494 550 495
f 550 551 495
f 495 551 496
f 551 552 496
f 496 552 497
f 552 553 497
f 497 553 498
f 553 554 498
f 498 554 499
f 554 555 499
f 499 555 500
f 555 556 500
f 500 556 501
f 556 557 501
f 501 557 502
f 557 558 502
f 502 558 503
f 558 559 503
f 503 559 504
f 559 560 504
f 504 560 449
f 560 505 449
f 505 561 506
f 561 562 506
f 506 562 507
f 562 563 507
f 507 563 508
f 563 564 508
f 508 564 509
f 564 565 509
f 509 565 510
f 565 566 510
f 510 566 511
f 566 567 511
f 511 567 512
f 567 568 512
f 512 568 513
f 568 569 513
f 513 569 514
f 569 570 514
f 514 570 515
f 570 571 515
f 515 571 516
f 571 572 516
f 516 572 517
f 572 573 517
f 517 573 518
f 573 574 518
f 518 574 519
f 574 575 519
f 519 575 520
f 575 576 520
f 520 576 521
f 576 577 521
f 521 577 522
f 577 578 522
f 522 578 523
f 578 579 523
f 523 579 524
f 579 580 524
f 524 580 525
f 580 581 525
f 525 581 526
f 581 582 526
f 526 582 527
f 582 583 527
f 527 583 528
f 583 584 528
f 528 584 529
f 584 585 529
f 529 585 530
f 585 586 530
f 530 586 531
f 586 587 531
f 531 587 532
f 587 588 532
f 532 588 533
f 588 589 533
f 533 589 534
f 589 590 534
f 534 590 535
f 590 591 535
f 535 591 536
f 591 592 536
f 536 592 537
f 592 593 537
f 537 593 538
f 593 594 538
f 538 594 539
f 594 595 539
f 539 595 540
f 595 596 540
f 540 596 541
f 596 597 541
f 541 597 542
f 597 598 542
f 542 598 543
f 598 599 543
f 543 599 544
f 599 600 544
f 544 600 545
f 600 601 545
f 545 601 546
f 601 602 546
f 546 602 547
f 602 603 547
f 547 603 548
f 603 604 548
f 548 604 549
f 604 605 549
f 549 605 550
f 605 606 550
f 550 606 551
f 606 607 551
f 551 607 552
f 607 608 552
f 552 608 553
f 608 609 553
f 553 609 554
f 609 610 554
f 554 610 555
f 610 611 555
f 555 611 556
f 611 612 556
f 556 612 557
f 612 613 557
f 557 613 558
f 613 614 558
f 558 614 559
f 614 615 559
f 559 615 560
f 615 616 560
f 560 616 505
f 616 561 505
f 561 617 562
f 617 618 562
f 562 618 563
f 618 619 563
f 563 619 564
f 619 620 564
f 564 620 565
f 620 621 565
f 565 621 566
f 621 622 566
f 566 622 567
f 622 623 567
f 567 623 568
f 623 624 568
f 568 624 569
f 624 625 569
f 569 625 570
f 625 626 570
f 570 626 571
f 626 627 571
f 571 627 572
f 627 628 572
f 572 628 573
f 628 629 573
f 573 629 574
f 629 630 574
f 574 630 575
f 630 631 575
f 575 631 576
f 631 632 576
f 576 632 577
f 632 633 577
f 577 633 578
f 633 634 578
f 578 634 579
f 634 635 579
f 579 635 580
f 635 636 580
f 580 636 581
f 636 637 581
f 581 637 582
f 637 638 582
f 582 638 583
f 638 639 583
f 583 639 584
f 639 640 584
f 584 640 585
f 640 641 585
f 585 641 586
f 641 642 586
f 586 642 587
f 642 643 587
f 587 643 588
f 643 644 588
f 588 644 589
f 644 645 589
f 589 645 590
f 645 646 590
f 590 646 591
f 646 647 591
f 591 647 592
f 647 648 592
f 592 648 593
f 648 649 593
f 593 649 594
f 649 650 594
f 594 650 595
f 650 651 595
f 595 651 596
f 651 652 596
f 596 652 597
f 652 653 597
f 597 653 598
f 653 654 598
f 598 654 599
f 654 655 599
f 599 655 600
f 655 656 600
f 600 656 601
f 656 657 601
f 601 657 602
f 657 658 602
f 602 658 603
f 658 659 603
f 603 659 604
f 659 660 604
f 604 660 605
f 660 661 605
f 605 661 606
f 661 662 606
f 606 662 607
f 662 663 607
f 607 663 608
f 663 664 608
f 608 664 609
f 664 665 609
f 609 665 610
f 665 666 610
f 610 666 611
f 666 667 611
f 611 667 612
f 667 668 612
f 612 668 613
f 668 669 613
f 613 669 614
f 669 670 614
f 614 670 615
f 670 671 615
f 615 671 616
f 671 672 616
f 616 672 561
f 672 617 561
f 617 673 618
f 673 674 618
f 618 674 619
f 674 675 619
f 619 675 620
f 675 676 620
f 620 676 621
f 676 677 621
f 621 677 622
f 677 678 622
f 622 678 623
f 678 679 623
f 623 679 624
f 679 680 624
f 624 680 625
f 680 681 625
f 625 681 626
f 681 682 626
f 626 682 627
f 682 683 627
f 627 683 628
f 683 684 628
f 628 684 629
f 684 685 629
f 629 685 630
f 685 686 630
f 630 686 631
f 686 687 631
f 631 687 632
f 687 688 632
f 632 688 633
f 688 689 633
f 633 689 634
f 689 690 634
f 634 690 635
f 690 691 635
f 635 691 636
f 691 692 636
f 636 692 637
f 692 693 637
f 637 693 638
f 693 694 638
f 638 694 639
f 694 695 639
f 639 695 640
f 695 696 640
f 640 696 641
f 696 697 641
f 641 697 642
f 697 698 642
f 642 698 643
f 698 699 643
f 643 699 644
f 699 700 644
f 644 700 645
f 700 701 645
f 645 701 646
f 701 702 646
f 646 702 647
f 702 703 647
f 647 703 648
f 703 704 648
f 648 704 649
f 704 705 649
f 649 705 650
f 705 706 650
f 650 706 651
f 706 707 651
f 651 707 652
f 707 708 652
f 652 708 653
f 708 709 653
f 653 709 654
f 709 710 654
f 654 710 655
f 710 711 655
f 655 711 656
f 711 712 656
f 656 712 657
f 712 713 657
f 657 713 658
f 713 714 658
f 658 714 659
f 714 715 659
f 659 715 660
f 715 716 660
f 660 716 661
f 716 717 661
f 661 717 662
f 717 718 662
f 662 718 663
f 718 719 663
f 663 719 664
f 719 720 664
f 664 720 665
f 720 721 665
f 665 721 666
f 721 722 666
f 666 722 667
f 722 723 667
f 667 723 668
f 723 724 668
f 668 724 669
f 724 725 669
f 669 725 670
f 725 726 670
f 670 726 671
f 726 727 671
f 671 727 672
f 727 728 672
f 672 728 617
f 728 673 617
f 673 729 674
f 729 730 674
f 674 730 675
f 730 731 675
f 675 731 676
f 731 732 676
f 676 732 677
f 732 733 677
f 677 733 678
f 733 734 678
f 678 734 679
f 734 735 679
f 679 735 680
f 735 736 680
f 680 736 681
f 736 737 681
f 681 737 682
f 737 738 682
f 682 738 683
f 738 739 683
f 683 739 684
f 739 740 684
f 684 740 685
f 740 741 685
f 685 741 686
f 741 742 686
f 686 742 687
f 742 743 687
f 687 743 688
f 743 744 688
f 688 744 689
f 744 745 689
f 689 745 690
f 745 746 690
f 690 746 691
f 746 747 691
f 691 747 692
f 747 748 692
f 692 748 693
f 748 749 693
f 693 749 694
f 749 750 694
f 694 750 695
f 750 751 695
f 695 751 696
f 751 752 696
f 696 752 697
f 752 753 697
f 697 753 698
f 753 754 698
f 698 754 699
f 754 755 699
f 699 755 700
f 755 756 700
f 700 756 701
f 756 757 701
f 701 757 702
f 757 758 702
f 702 758 703
f 758 759 703
f 703 759 704
f 759 760 704
f 704 760 705
f 760 761 705
f 705 761 706
f 761 762 706
f 706 762 707
f 762 763 707
f 707 763 708
f 763 764 708
f 708 764 709
f 764 765 709
f 709 765 710
f 765 766 710
f 710 766 711
f 766 767 711
f 711 767 712
f 767 768 712
f 712 768 713
f 768 769 713
f 713 769 714
f 769 770 714
f 714 770 715
f 770 771 715
f 715 771 716
f 771 772 716
f 716 772 717
f 772 773 717
f 717 773 718
f 773 774 718
f 718 774 719
f 774 775 719
f 719 775 720
f 775 776 720
f 720 776 721
f 776 777 721
f 721 777 722
f 777 778 722
f 722 778 723
f 778 779 723
f 723 779 724
f 779 780 724
f 724 780 725
f 780 781 725
f 725 781 726
f 781 782 726
f 726 782 727
f 782 783 727
f 727 783 728
f 783 784 728
f 728 784 673
f 784 729 673
f 729 785 730
f 785 786 730
f 730 786 731
f 786 787 731
f 731 787 732
f 787 788 732
f 732 788 733
f 788 789 733
f 733 789 734
f 789 790 734
f 734 790 735
f 790 791 735
f 735 791 736
f 791 792 736
f 736 792 737
f 792 793 737
f 737 793 738
f 793 794 738
f 738 794 739
f 794 795 739
f 739 795 740
f 795 796 740
f 740 796 741
f 796 797 741
f 741 797 742
f 797 798 742
f 742 798 743
f 798 799 743
f 743 799 744
f 799 800 744
f 744 800 745
f 800 801 745
f 745 801 746
f 801 802 746
f 746 802 747
f 802 803 747
f 747 803 748
f 803 804 748
f 748 804 749
f 804 805 749
f 749 805 750
f 805 806 750
f 750 806 751
f 806 807 751
f 751 807 752
f 807 808 752
f 752 808 753
f 808 809 753
f 753 809 754
f 809 810 754
f 754 810 755
f 810 811 755
f 755 811 756
f 811 812 756
f 756 812 757
f 812 813 757
f 757 813 758
f 813 814 758
f 758 814 759
f 814 815 759
f 759 815 760
f 815 816 760
f 760 816 761
f 816 817 761
f 761 817 762
f 817 818 762
f 762 818 763
f 818 819 763
f 763 819 764
f 819 820 764
f 764 820 765
f 820 821 765
f 765 821 766
f 821 822 766
f 766 822 767
f 822 823 767
f 767 823 768
f 823 824 768
f 768 824 769
f 824 825 769
f 769 825 770
f 825 826 770
f 770 826 771
f 826 827 771
f 771 827 772
f 827 828 772
f 772 828 773
f 828 829 773
f 773 829 774
f 829 830 774
f 774 830 775
f 830 831 775
f 775 831 776
f 831 832 776
f 776 832 777
f 832 833 777
f 777 833 778
f 833 834 778
f 778 834 779
f 834 835 779
f 779 835 780
f 835 836 780
f 780 836 781
f 836 837 781
f 781 837 782
f 837 838 782
f 782 838 783
f 838 839 783
f 783 839 784
f 839 840 784
f 784 840 729
f 840 785 729
f 785 841 786
f 841 842 786
f 786 842 787
f 842 843 787
f 787 843 788
f 843 844 788
f 788 844 789
f 844 845 789
f 789 845 790
f 845 846 790
f 790 846 791
f 846 847 791
f 791 847 792
f 847 848 792
f 792 848 793
f 848 849 793
f 793 849 794
f 849 850 794
f 794 850 795
f 850 851 795
f 795 851 796
f 851 852 796
f 796 852 797
f 852 853 797
f 797 853 798
f 853 854 798
f 798 854 799
f 854 855 799
f 799 855 800
f 855 856 800
f 800 856 801
f 856 857 801
f 801 857 802
f 857 858 802
f 802 858 803
f 858 859 803
f 803 859 804
f 859 860 804
f 804 860 805
f 860 861 805
f 805 861 806
f 861 862 806
f 806 862 807
f 862 863 807
f 807 863 808
f 863 864 808
f 808 864 809
f 864 865 809
f 809 865 810
f 865 866 810
f 810 866 811
f 866 867 811
f 811 867 812
f 867 868 812
f 812 868 813
f 868 869 813
f 813 869 814
f 869 870 814
f 814 870 815
f 870 871 815
f 815 871 816
f 871 872 816
f 816 872 817
f 872 873 817
f 817 873 818
f 873 874 818
f 818 874 819
f 874 875 819
f 819 875 820
f 875 876 820
f 820 876 821
f 876 877 821
f 821 877 822
f 877 878 822
f 822 878 823
f 878 879 823
f 823 879 824
f 879 880 824
f 824 880 825
f 880 881 825
f 825 881 826
f 881 882 826
f 826 882 827
f 882 883 827
f 827 883 828
f 883 884 828
f 828 884 829
f 884 885 829
f 829 885 830
f 885 886 830
f 830 886 831
f 886 887 831
f 831 887 832
f 887 888 832
f 832 888 833
f 888 889 833
f 833 889 834
f 889 890 834
f 834 890 835
f 890 891 835
f 835 891 836
f 891 892 836
f 836 892 837
f 892 893 837
f 837 893 838
f 893 894 838
f 838 894 839
f 894 895 839
f 839 895 840
f 895 896 840
f 840 896 785
f 896 841 785
f 841 897 842
f 897 898 842
f 842 898 843
f 898 899 843
f 843 899 844
f 899 900 844
f 844 900 845
f 900 901 845
f 845 901 846
f 901 902 846
f 846 902 847
f 902 903 847
f 847 903 848
f 903 904 848
f 848 904 849
f 904 905 849
f 849 905 850
f 905 906 850
f 850 906 851
f 906 907 851
f 851 907 852
f 907 908 852
f 852 908 853
f 908 909 853
f 853 909 854
f 909 910 854
f 854 910 855
f 910 911 855
f 855 911 856
f 911 912 856
f 856 912 857
f 912 913 857
f 857 913 858
f 913 914 858
f 858 914 859
f 914 915 859
f 859 915 860
f 915 916 860
f 860 916 861
f 916 917 861
f 861 917 862
f 917 918 862
f 862 918 863
f 918 919 863
f 863 919 864
f 919 920 864
f 864 920 865
f 920 921 865
f 865 921 866
f 921 922 866
f 866 922 867
f 922 923 867
f 867 923 868
f 923 924 868
f 868 924 869
f 924 925 869
f 869 925 870
f 925 926 870
f 870 926 871
f 926 927 871
f 871 927 872
f 927 928 872
f 872 928 873
f 928 929 873
f 873 929 874
f 929 930 874
f 874 930 875
f 930 931 875
f 875 931 876
f 931 932 876
f 876 932 877
f 932 933 877
f 877 933 878
f 933 934 878
f 878 934 879
f 934 935 879
f 879 935 880
f 935 936 880
f 880 936 881
f 936 937 881
f 881 937 882
f 937 938 882
f 882 938 883
f 938 939 883
f 883 939 884
f 939 940 884
f 884 940 885
f 940 941 885
f 885 941 886
f 941 942 886
f 886 942 887
f 942 943 887
f 887 943 888
f 943 944 888
f 888 944 889
f 944 945 889
f 889 945 890
f 945 946 890
f 890 946 891
f 946 947 891
f 891 947 892
f 947 948 892
f 892 948 893
f 948 949 893
f 893 949 894
f 949 950 894
f 894 950 895
f 950 951 895
f 895 951 896
f 951 952 896
f 896 952 841
f 952 897 841
f 897 953 898
f 953 954 898
f 898 954 899
f 954 955 899
f 899 955 900
f 955 956 900
f 900 956 901
f 956 957 901
f 901 957 902
f 957 958 902
f 902 958 903
f 958 959 903
f 903 959 904
f 959 960 904
f 904 960 905
f 960 961 905
f 905 961 906
f 961 962 906
f 906 962 907
f 962 963 907
f 907 963 908
f 963 964 908
f 908 964 909
f 964 965 909
f 909 965 910
f 965 966 910
f 910 966 911
f 966 967 911
f 911 967 912
f 967 968 912
f 912 968 913
f 968 969 913
f 913 969 914
f 969 970 914
f 914 970 915
f 970 971 915
f 915 971 916
f 971 972 916
f 916 972 917
f 972 973 917
f 917 973 918
f 973 974 918
f 918 974 919
f 974 975 919
f 919 975 920
f 975 976 920
f 920 976 921
f 976 977 921
f 921 977 922
f 977 978 922
f 922 978 923
f 978 979 923
f 923 979 924
f 979 980 924
f 924 980 925
f 980 981 925
f 925 981 926
f 981 982 926
f 926 982 927
f 982 983 927
f 927 983 928
f 983 984 928
f 928 984 929
f 984 985 929
f 929 985 930
f 985 986 930
f 930 986 931
f 986 987 931
f 931 987 932
f 987 988 932
f 932 988 933
f 988 989 933
f 933 989 934
f 989 990 934
f 934 990 935
f 990 991 935
f 935 991 936
f 991 992 936
f 936 992 937
f 992 993 937
f 937 993 938
f 993 994 938
f 938 994 939
f 994 995 939
f 939 995 940
f 995 996 940
f 940 996 941
f 996 997 941
f 941 997 942
f 997 998 942
f 942 998 943
f 998 999 943
f 943 999 944
f 999 1000 944
f 944 1000 945
f 1000 1001 945
f 945 1001 946
f 1001 1002 946
f 946 1002 947
f 1002 1003 947
f 947 1003 948
f 1003 1004 948
f 948 1004 949
f 1004 1005 949
f 949 1005 950
f 1005 1006 950
f 950 1006 951
f 1006 1007 951
f 951 1007 952
f 1007 1008 952
f 952 1008 897
f 1008 953 897
f 953 1009 954
f 1009 1010 954
f 954 1010 955
f 1010 1011 955
f 955 1011 956
f 1011 1012 956
f 956 1012 957
f 1012 1013 957
f 957 1013 958
f 1013 1014 958
f 958 1014 959
f 1014 1015 959
f 959 1015 960
f 1015 1016 960
f 960 1016 961
f 1016 1017 961
f 961 1017 962
f 1017 1018 962
f 962 1018 963
f 1018 1019 963
f 963 1019 964
f 1019 1020 964
f 964 1020 965
f 1020 1021 965
f 965 1021 966
f 1021 1022 966
f 966 1022 967
f 1022 1023 967
f 967 1023 968
f 1023 1024 968
f 968 1024 969
f 1024 1025 969
f 969 1025 970
f 1025 1026 970
f 970 1026 971
f 1026 1027 971
f 971 1027 972
f 1027 1028 972
f 972 1028 973
f 1028 1029 973
f 973 1029 974
f 1029 1030 974
f 974 1030 975
f 1030 1031 975
f 975 1031 976
f 1031 1032 976
f 976 1032 977
f 1032 1033 977
f 977 1033 978
f 1033 1034 978
f 978 1034 979
f 1034 1035 979
f 979 1035 980
f 1035 1036 980
f 980 1036 981
f 1036 1037 981
f 981 1037 982
f 1037 1038 982
f 982 1038 983
f 1038 1039 983
f 983 1039 984
f 1039 1040 984
f 984 1040 985
f 1040 1041 985
f 985 1041 986
f 1041 1042 986
f 986 1042 987
f 1042 1043 987
f 987 1043 988
f 1043 1044 988
f 988 1044 989
f 1044 1045 989
f 989 1045 990
f 1045 1046 990
f 990 1046 991
f 1046 1047 991
f 991 1047 992
f 1047 1048 992
f 992 1048 993
f 1048 1049 993
f 993 1049 994
f 1049 1050 994
f 994 1050 995
f 1050 1051 995
f 995 1051 996
f 1051 1052 996
f 996 1052 997
f 1052 1053 997
f 997 1053 998
f 1053 1054 998
f 998 1054 999
f 1054 1055 999
f 999 1055 1000
f 1055 1056 1000
f 1000 1056 1001
f 1056 1057 1001
f 1001 1057 1002
f 1057 1058 1002
f 1002 1058 1003
f 1058 1059 1003
f 1003 1059 1004
f 1059 1060 1004
f 1004 1060 1005
f 1060 1061 1005
f 1005 1061 1006
f 1061 1062 1006
f 1006 1062 1007
f 1062 1063 1007
f 1007 1063 1008
f 1063 1064 1008
f 1008 1064 953
f 1064 1009 953
f 1009 1065 1010
f 1065 1066 1010
f 1010 1066 1011
f 1066 1067 1011
f 1011 1067 1012
f 1067 1068 1012
f 1012 1068 1013
f 1068 1069 1013
f 1013 1069 1014
f 1069 1070 1014
f 1014 1070 1015
f 1070 1071 1015
f 1015 1071 1016
f 1071 1072 1016
f 1016 1072 1017
f 1072 1073 1017
f 1017 1073 1018
f 1073 1074 1018
f 1018 1074 1019
f 1074 1075 1019
f 1019 1075 1020
f 1075 1076 1020
f 1020 1076 1021
f 1076 1077 1021
f 1021 1077 1022
f 1077 1078 1022
f 1022 1078 1023
f 1078 1079 1023
f 1023 1079 1024
f 1079 1080 1024
f 1024 1080 1025
f 1080 1081 1025
f 1025 1081 1026
f 1081 1082 1026
f 1026 1082 1027
f 1082 1083 1027
f 1027 1083 1028
f 1083 1084 1028
f 1028 1084 1029
f 1084 1085 1029
f 1029 1085 1030
f 1085 1086 1030
f 1030 1086 1031
f 1086 1087 1031
f 1031 1087 1032
f 1087 1088 1032
f 1032 1088 1033
f 1088 1089 1033
f 1033 1089 1034
f 1089 1090 1034
f 1034 1090 1035
f 1090 1091 1035
f 1035 1091 1036
f 1091 1092 1036
f 1036 1092 1037
f 1092 1093 1037
f 1037 1093 1038
f 1093 1094 1038
f 1038 1094 1039
f 1094 1095 1039
f 1039 1095 1040
f 1095 1096 1040
f 1040 1096 1041
f 1096 1097 1041
f 1041 1097 1042
f 1097 1098 1042
f 1042 1098 1043
f 1098 1099 1043
f 1043 1099 1044
f 1099 1100 1044
f 1044 1100 1045
f 1100 1101 1045
f 1045 1101 1046
f 1101 1102 1046
f 1046 1102 1047
f 1102 1103 1047
f 1047 1103 1048
f 1103 1104 1048
f 1048 1104 1049
f 1104 1105 1049
f 1049 1105 1050
f 1105 1106 1050
f 1050 1106 1051
f 1106 1107 1051
f 1051 1107 1052
f 1107 1108 1052
f 1052 1108 1053
f 1108 1109 1053
f 1053 1109 1054
f 1109 1110 1054
f 1054 1110 1055
f 1110 1111 1055
f 1055 1111 1056
f 1111 1112 1056
f 1056 1112 1057
f 1112 1113 1057
f 1057 1113 1058
f 1113 1114 1058
f 1058 1114 1059
f 1114 1115 1059
f 1059 1115 1060
f 1115 1116 1060
f 1060 1116 1061
f 1116 1117 1061
f 1061 1117 1062
f 1117 1118 1062
f 1062 1118 1063
f 1118 1119 1063
f 1063 1119 1064
f 1119 1120 1064
f 1064 1120 1009
f 1120 1065 1009
f 1065 1121 1066
f 1121 1122 1066
f 1066 1122 1067
f 1122 1123 1067
f 1067 1123 1068
f 1123 1124 1068
f 1068 1124 1069
f 1124 1125 1069
f 1069 1125 1070
f 1125 1126 1070
f 1070 1126 1071
f 1126 1127 1071
f 1071 1127 1072
f 1127 1128 1072
f 1072 1128 1073
f 1128 1129 1073
f 1073 1129 1074
f 1129 1130 1074
f 1074 1130 1075
f 1130 1131 1075
f 1075 1131 1076
f 1131 1132 1076
f 1076 1132 1077
f 1132 1133 1077
f 1077 1133 1078
f 1133 1134 1078
f 1078 1134 1079
f 1134 1135 1079
f 1079 1135 1080
f 1135 1136 1080
f 1080 1136 1081
f 1136 1137 1081
f 1081 1137 1082
f 1137 1138 1082
f 1082 1138 1083
f 1138 1139 1083
f 1083 1139 1084
f 1139 1140 1084
f 1084 1140 1085
f 1140 1141 1085
f 1085 1141 1086
f 1141 1142 1086
f 1086 1142 1087
f 1142 1143 1087
f 1087 1143 1088
f 1143 1144 1088
f 1088 1144 1089
f 1144 1145 1089
f 1089 1145 1090
f 1145 1146 1090
f 1090 1146 1091
f 1146 1147 1091
f 1091 1147 1092
f 1147 1148 1092
f 1092 1148 1093
f 1148 1149 1093
f 1093 1149 1094
f 1149 1150 1094
f 1094 1150 1095
f 1150 1151 1095
f 1095 1151 1096
f 1151 1152 1096
f 1096 1152 1097
f 1152 1153 1097
f 1097 1153 1098
f 1153 1154 1098
f 1098 1154 1099
f 1154 1155 1099
f 1099 1155 1100
f 1155 1156 1100
f 1100 1156 1101
f 1156 1157 1101
f 1101 1157 1102
f 1157 1158 1102
f 1102 1158 1103
f 1158 1159 1103
f 1103 1159 1104
f 1159 1160 1104
f 1104 1160 1105
f 1160 1161 1105
f 1105 1161 1106
f 1161 1162 1106
f 1106 1162 1107
f 1162 1163 1107
f 1107 1163 1108
f 1163 1164 1108
f 1108 1164 1109
f 1164 1165 1109
f 1109 1165 1110
f 1165 1166 1110
f 1110 1166 1111
f 1166 1167 1111
f 1111 1167 1112
f 1167 1168 1112
f 1112 1168 1113
f 1168 1169 1113
f 1113 1169 1114
f 1169 1170 1114
f 1114 1170 1115
f 1170 1171 1115
f 1115 1171 1116
f 1171 1172 1116
f 1116 1172 1117
f 1172 1173 1117
f 1117 1173 1118
f 1173 1174 1118
f 1118 1174 1119
f 1174 1175 1119
f 1119 1175 1120
f 1175 1176 1120
f 1120 1176 1065
f 1176 1121 1065
f 1121 1177 1122
f 1177 1178 1122
f 1122 1178 1123
f 1178 1179 1123
f 1123 1179 1124
f 1179 1180 1124
f 1124 1180 1125
f 1180 1181 1125
f 1125 1181 1126
f 1181 1182 1126
f 1126 1182 1127
f 1182 1183 1127
f 1127 1183 1128
f 1183 1184 1128
f 1128 1184 1129
f 1184 1185 1129
f 1129 1185 1130
f 1185 1186 1130
f 1130 1186 1131
f 1186 1187 1131
f 1131 1187 1132
f 1187 1188 1132
f 1132 1188 1133
f 1188 1189 1133
f 1133 1189 1134
f 1189 1190 1134
f 1134 1190 1135
f 1190 1191 1135
f 1135 1191 1136
f 1191 1192 1136
f 1136 1192 1137
f 1192 1193 1137
f 1137 1193 1138
f 1193 1194 1138
f 1138 1194 1139
f 1194 1195 1139
f 1139 1195 1140
f 1195 1196 1140
f 1140 1196 1141
f 1196 1197 1141
f 1141 1197 1142
f 1197 1198 1142
f 1142 1198 1143
f 1198 1199 1143
f 1143 1199 1144
f 1199 1200 1144
f 1144 1200 1145
f 1200 1201 1145
f 1145 1201 1146
f 1201 1202 1146
f 1146 1202 1147
f 1202 1203 1147
f 1147 1203 1148
f 1203 1204 1148
f 1148 1204 1149
f 1204 1205 1149
f 1149 1205 1150
f 1205 1206 1150
f 1150 1206 1151
f 1206 1207 1151
f 1151 1207 1152
f 1207 1208 1152
f 1152 1208 1153
f 1208 1209 1153
f 1153 1209 1154
f 1209 1210 1154
f 1154 1210 1155
f 1210 1211 1155
f 1155 1211 1156
f 1211 1212 1156
f 1156 1212 1157
f 1212 1213 1157
f 1157 1213 1158
f 1213 1214 1158
f 1158 1214 1159
f 1214 1215 1159
f 1159 1215 1160
f 1215 1216 1160
f 1160 1216 1161
f 1216 1217 1161
f 1161 1217 1162
f 1217 1218 1162
f 1162 1218 1163
f 1218 1219 1163
f 1163 1219 1164
f 1219 1220 1164
f 1164 1220 1165
f 1220 1221 1165
f 1165 1221 1166
f 1221 1222 1166
f 1166 1222 1167
f 1222 1223 1167
f 1167 1223 1168
f 1223 1224 1168
f 1168 1224 1169
f 1224 1225 1169
f 1169 1225 1170
f 1225 1226 1170
f 1170 1226 1171
f 1226 1227 1171
f 1171 1227 1172
f 1227 1228 1172
f 1172 1228 1173
f 1228 1229 1173
f 1173 1229 1174
f 1229 1230 1174
f 1174 1230 1175
f 1230 1231 1175
f 1175 1231 1176
f 1231 1232 1176
f 1176 1232 1121
f 1232 1177 1121
f 1177 1233 1178
f 1233 1234 1178
f 1178 1234 1179
f 1234 1235 1179
f 1179 1235 1180
f 1235 1236 1180
f 1180 1236 1181
f 1236 1237 1181
f 1181 1237 1182
f 1237 1238 1182
f 1182 1238 1183
f 1238 1239 1183
f 1183 1239 1184
f 1239 1240 1184
f 1184 1240 1185
f 1240 1241 1185
f 1185 1241 1186
f 1241 1242 1186
f 1186 1242 1187
f 1242 1243 1187
f 1187 1243 1188
f 1243 1244 1188
f 1188 1244 1189
f 1244 1245 1189
f 1189 1245 1190
f 1245 1246 1190
f 1190 1246 1191
f 1246 1247 1191
f 1191 1247 1192
f 1247 1248 1192
f 1192 1248 1193
f 1248 1249 1193
f 1193 1249 1194
f 1249 1250 1194
f 1194 1250 1195
f 1250 1251 1195
f 1195 1251 1196
f 1251 1252 1196
f 1196 1252 1197
f 1252 1253 1197
f 1197 1253 1198
f 1253 1254 1198
f 1198 1254 1199
f 1254 1255 1199
f 1199 1255 1200
f 1255 1256 1200
f 1200 1256 1201
f 1256 1257 1201
f 1201 1257 1202
f 1257 1258 1202
f 1202 1258 1203
f 1258 1259 1203
f 1203 1259 1204
f 1259 1260 1204
f 1204 1260 1205
f 1260 1261 1205
f 1205 1261 1206
f 1261 1262 1206
f 1206 1262 1207
f 1262 1263 1207
f 1207 1263 1208
f 1263 1264 1208
f 1208 1264 1209
f 1264 1265 1209
f 1209 1265 1210
f 1265 1266 1210
f 1210 1266 1211
f 1266 1267 1211
f 1211 1267 1212
f 1267 1268 1212
f 1212 1268 1213
f 1268 1269 1213
f 1213 1269 1214
f 1269 1270 1214
f 1214 1270 1215
f 1270 1271 1215
f 1215 1271 1216
f 1271 1272 1216
f 1216 1272 1217
f 1272 1273 1217
f 1217 1273 1218
f 1273 1274 1218
f 1218 1274 1219
f 1274 1275 1219
f 1219 1275 1220
f 1275 1276 1220
f 1220 1276 1221
f 1276 1277 1221
f 1221 1277 1222
f 1277 1278 1222
f 1222 1278 1223
f 1278 1279 1223
f 1223 1279 1224
f 1279 1280 1224
f 1224 1280 1225
f 1280 1281 1225
f 1225 1281 1226
f 1281 1282 1226
f 1226 1282 1227
f 1282 1283 1227
f 1227 1283 1228
f 1283 1284 1228
f 1228 1284 1229
f 1284 1285 1229
f 1229 1285 1230
f 1285 1286 1230
f 1230 1286 1231
f 1286 1287 1231
f 1231 1287 1232
f 1287 1288 1232
f 1232 1288 1177
f 1288 1233 1177
